<?xml version="1.0" encoding="UTF-8" standalone="no"?>
<!-- Created with Inkscape (http://www.inkscape.org/) -->

<svg
   xmlns:dc="http://purl.org/dc/elements/1.1/"
   xmlns:cc="http://creativecommons.org/ns#"
   xmlns:rdf="http://www.w3.org/1999/02/22-rdf-syntax-ns#"
   xmlns:svg="http://www.w3.org/2000/svg"
   xmlns="http://www.w3.org/2000/svg"
   xmlns:xlink="http://www.w3.org/1999/xlink"
   xmlns:sodipodi="http://sodipodi.sourceforge.net/DTD/sodipodi-0.dtd"
   xmlns:inkscape="http://www.inkscape.org/namespaces/inkscape"
   id="svg3039"
   version="1.1"
   inkscape:version="0.48.3.1 r9886"
   width="475"
   height="241.96875"
   sodipodi:docname="3082_0_es.question.svg">
  <metadata
     id="metadata3045">
    <rdf:RDF>
      <cc:Work
         rdf:about="">
        <dc:format>image/svg+xml</dc:format>
        <dc:type
           rdf:resource="http://purl.org/dc/dcmitype/StillImage" />
        <dc:title></dc:title>
      </cc:Work>
    </rdf:RDF>
  </metadata>
  <defs
     id="defs3043">
    <linearGradient
       id="linearGradient3078">
      <stop
         style="stop-color:#dedede;stop-opacity:1;"
         offset="0"
         id="stop3080" />
      <stop
         style="stop-color:#f6f6f6;stop-opacity:1;"
         offset="1"
         id="stop3082" />
    </linearGradient>
    <linearGradient
       id="linearGradient3897">
      <stop
         style="stop-color:#ebebeb;stop-opacity:1;"
         offset="0"
         id="stop3899" />
      <stop
         style="stop-color:#5d1c1c;stop-opacity:0;"
         offset="1"
         id="stop3901" />
    </linearGradient>
    <linearGradient
       id="linearGradient3869">
      <stop
         id="stop3905"
         offset="0"
         style="stop-color:#f5f5f5;stop-opacity:1;" />
      <stop
         style="stop-color:#f5f5f5;stop-opacity:1;"
         offset="1"
         id="stop3873" />
    </linearGradient>
    <linearGradient
       id="linearGradient3859">
      <stop
         style="stop-color:#f5f5f5;stop-opacity:1;"
         offset="0"
         id="stop3861" />
      <stop
         style="stop-color:#000000;stop-opacity:0;"
         offset="1"
         id="stop3863" />
    </linearGradient>
    <linearGradient
       inkscape:collect="always"
       xlink:href="#linearGradient3078"
       id="linearGradient3084"
       x1="242.13281"
       y1="110.715"
       x2="242.13281"
       y2="90.389732"
       gradientUnits="userSpaceOnUse" />
    <linearGradient
       inkscape:collect="always"
       xlink:href="#linearGradient3078"
       id="linearGradient3924"
       x1="106.67228"
       y1="209.10641"
       x2="106.67228"
       y2="196.91612"
       gradientUnits="userSpaceOnUse" />
    <linearGradient
       inkscape:collect="always"
       xlink:href="#linearGradient3078"
       id="linearGradient3953"
       gradientUnits="userSpaceOnUse"
       x1="106.67228"
       y1="209.10641"
       x2="106.67228"
       y2="196.91612" />
    <linearGradient
       inkscape:collect="always"
       xlink:href="#linearGradient3078"
       id="linearGradient3961"
       gradientUnits="userSpaceOnUse"
       x1="106.67228"
       y1="209.10641"
       x2="106.67228"
       y2="196.91612" />
    <linearGradient
       inkscape:collect="always"
       xlink:href="#linearGradient3078"
       id="linearGradient3978"
       gradientUnits="userSpaceOnUse"
       x1="106.67228"
       y1="209.10641"
       x2="106.67228"
       y2="196.91612" />
    <linearGradient
       inkscape:collect="always"
       xlink:href="#linearGradient3078-0"
       id="linearGradient3978-0"
       gradientUnits="userSpaceOnUse"
       x1="106.67228"
       y1="209.10641"
       x2="106.67228"
       y2="196.91612" />
    <linearGradient
       id="linearGradient3078-0">
      <stop
         style="stop-color:#dedede;stop-opacity:1;"
         offset="0"
         id="stop3080-0" />
      <stop
         style="stop-color:#f6f6f6;stop-opacity:1;"
         offset="1"
         id="stop3082-4" />
    </linearGradient>
    <linearGradient
       inkscape:collect="always"
       xlink:href="#linearGradient3078-0"
       id="linearGradient3953-7"
       gradientUnits="userSpaceOnUse"
       x1="106.67228"
       y1="209.10641"
       x2="106.67228"
       y2="196.91612" />
    <linearGradient
       id="linearGradient3997">
      <stop
         style="stop-color:#dedede;stop-opacity:1;"
         offset="0"
         id="stop3999" />
      <stop
         style="stop-color:#f6f6f6;stop-opacity:1;"
         offset="1"
         id="stop4001" />
    </linearGradient>
    <linearGradient
       inkscape:collect="always"
       xlink:href="#linearGradient3078-0"
       id="linearGradient3924-2"
       x1="106.67228"
       y1="209.10641"
       x2="106.67228"
       y2="196.91612"
       gradientUnits="userSpaceOnUse" />
    <linearGradient
       id="linearGradient4004">
      <stop
         style="stop-color:#dedede;stop-opacity:1;"
         offset="0"
         id="stop4006" />
      <stop
         style="stop-color:#f6f6f6;stop-opacity:1;"
         offset="1"
         id="stop4008" />
    </linearGradient>
  </defs>
  <sodipodi:namedview
     pagecolor="#ffffff"
     bordercolor="#666666"
     borderopacity="1"
     objecttolerance="10"
     gridtolerance="10"
     guidetolerance="10"
     inkscape:pageopacity="0"
     inkscape:pageshadow="2"
     inkscape:window-width="956"
     inkscape:window-height="1018"
     id="namedview3041"
     showgrid="false"
     showguides="true"
     inkscape:guide-bbox="true"
     inkscape:snap-bbox="true"
     inkscape:snap-bbox-midpoints="false"
     inkscape:snap-bbox-edge-midpoints="true"
     inkscape:bbox-nodes="true"
     inkscape:zoom="1.4142136"
     inkscape:cx="217.36852"
     inkscape:cy="101.05235"
     inkscape:window-x="0"
     inkscape:window-y="0"
     inkscape:window-maximized="0"
     inkscape:current-layer="layer2"
     fit-margin-top="0"
     fit-margin-left="0"
     fit-margin-right="0"
     fit-margin-bottom="0">
    <sodipodi:guide
       orientation="1,0"
       position="-12,252.96875"
       id="guide3053" />
    <sodipodi:guide
       orientation="1,0"
       position="485,252.96875"
       id="guide3055" />
    <sodipodi:guide
       orientation="0,1"
       position="-12,252.96875"
       id="guide3057" />
    <sodipodi:guide
       orientation="0,1"
       position="485,-51.03125"
       id="guide3059" />
  </sodipodi:namedview>
  <g
     inkscape:groupmode="layer"
     id="layer2"
     inkscape:label="SVG"
     style="display:inline"
     transform="translate(-12,-11)">
    <rect
       ry="0"
       y="13.00207"
       x="14.00389"
       height="237.99681"
       width="470.99173"
       id="rect3829"
       style="fill:#d2e0f2;fill-opacity:1;stroke:none" />
    <rect
       style="fill:#eef6ff;fill-opacity:1;stroke:none"
       id="rect3831"
       width="353.4917"
       height="227.99681"
       x="72.503891"
       y="13.00207"
       ry="0" />
    <rect
       ry="0"
       y="173.93958"
       x="72.503891"
       height="67.059311"
       width="353.4917"
       id="rect3833"
       style="fill:#ffffff;fill-opacity:1;stroke:none" />
    <rect
       style="fill:none;stroke:#bbc6cc;stroke-width:1;stroke-miterlimit:10;stroke-opacity:1;stroke-dasharray:none"
       id="rect3051"
       width="473.98779"
       height="240.97679"
       x="12.50389"
       y="11.50207"
       ry="0" />
    <text
       xml:space="preserve"
       style="font-size:12px;font-style:normal;font-weight:normal;line-height:123.00000191%;letter-spacing:0px;word-spacing:0px;fill:#000000;fill-opacity:1;stroke:none;font-family:Sans"
       x="84.75"
       y="30.937506"
       id="text3835"
       sodipodi:linespacing="123%"><tspan
         sodipodi:role="line"
         x="84.75"
         y="30.937506"
         id="tspan3839">Escucha la siguiente grabación una sola vez y </tspan><tspan
         sodipodi:role="line"
         x="84.75"
         y="45.697506"
         id="tspan3843">responde la pregunta.</tspan></text>
    <text
       sodipodi:linespacing="123%"
       id="text3845"
       y="72.9375"
       x="84.75"
       style="font-size:12px;font-style:normal;font-weight:normal;line-height:123.00000191%;letter-spacing:0px;word-spacing:0px;fill:#000000;fill-opacity:1;stroke:none;font-family:Sans"
       xml:space="preserve"><tspan
         id="tspan3849"
         y="72.9375"
         x="84.75"
         sodipodi:role="line">(Trata de no usar el botón para escucharla otra vez.)</tspan></text>
    <text
       xml:space="preserve"
       style="font-size:12px;font-style:normal;font-weight:normal;line-height:123.00000191%;letter-spacing:0px;word-spacing:0px;fill:#000000;fill-opacity:1;stroke:none;font-family:Sans"
       x="84.75"
       y="137.9375"
       id="text3853"
       sodipodi:linespacing="123%"><tspan
         sodipodi:role="line"
         x="84.75"
         y="137.9375"
         id="tspan3855">¿Qué palabra escuchaste?</tspan></text>
    <rect
       style="fill:url(#linearGradient3084);fill-opacity:1;stroke:#a4a4a4;stroke-opacity:1"
       id="rect3857"
       width="122.25"
       height="21"
       x="188.25"
       y="90.5"
       ry="0.98332036" />
    <text
       sodipodi:linespacing="123%"
       id="text3086"
       y="105.87461"
       x="195.95508"
       style="font-size:12px;font-style:normal;font-weight:normal;line-height:123.00000191%;letter-spacing:0px;word-spacing:0px;fill:#000000;fill-opacity:1;stroke:none;display:inline;font-family:Sans"
       xml:space="preserve"><tspan
         id="tspan3088"
         y="105.87461"
         x="195.95508"
         sodipodi:role="line">Volver a escuchar</tspan></text>
    <g
       transform="translate(-1.0278625e-6,3.94989e-7)"
       style="display:inline"
       id="g3968">
      <path
         d="m 111.63449,203.23729 c 0,2.97775 -2.41394,5.39169 -5.39169,5.39169 -2.97775,0 -5.39169,-2.41394 -5.39169,-5.39169 0,-2.97775 2.41394,-5.39169 5.39169,-5.39169 2.97775,0 5.39169,2.41394 5.39169,5.39169 z"
         sodipodi:ry="5.3916888"
         sodipodi:rx="5.3916888"
         sodipodi:cy="203.23729"
         sodipodi:cx="106.2428"
         id="path3134"
         style="opacity:0.98000004;fill:url(#linearGradient3924-2);fill-opacity:1;stroke:#9d978c;stroke-width:1;stroke-miterlimit:7;stroke-opacity:1;stroke-dasharray:none;stroke-dashoffset:0;display:inline"
         sodipodi:type="arc"
         transform="translate(18.561552,4.596199)" />
      <text
         xml:space="preserve"
         style="font-size:12px;font-style:normal;font-weight:normal;line-height:123.00000191%;letter-spacing:0px;word-spacing:0px;fill:#000000;fill-opacity:1;stroke:none;display:inline;font-family:Sans"
         x="137.70715"
         y="212.47096"
         id="text3086-2"
         sodipodi:linespacing="123%"><tspan
           sodipodi:role="line"
           x="137.70715"
           y="212.47096"
           id="tspan3088-9">Válido</tspan></text>
    </g>
    <g
       transform="translate(-1.0278625e-6,3.94989e-7)"
       style="display:inline"
       id="g3963">
      <path
         transform="translate(111.72287,4.596199)"
         sodipodi:type="arc"
         style="opacity:0.98000004;fill:url(#linearGradient3953-7);fill-opacity:1;stroke:#9d978c;stroke-width:1;stroke-miterlimit:7;stroke-opacity:1;stroke-dasharray:none;stroke-dashoffset:0;display:inline"
         id="path3947"
         sodipodi:cx="106.2428"
         sodipodi:cy="203.23729"
         sodipodi:rx="5.3916888"
         sodipodi:ry="5.3916888"
         d="m 111.63449,203.23729 c 0,2.97775 -2.41394,5.39169 -5.39169,5.39169 -2.97775,0 -5.39169,-2.41394 -5.39169,-5.39169 0,-2.97775 2.41394,-5.39169 5.39169,-5.39169 2.97775,0 5.39169,2.41394 5.39169,5.39169 z" />
      <text
         sodipodi:linespacing="123%"
         id="text3949"
         y="212.47096"
         x="230.86847"
         style="font-size:12px;font-style:normal;font-weight:normal;line-height:123.00000191%;letter-spacing:0px;word-spacing:0px;fill:#000000;fill-opacity:1;stroke:none;display:inline;font-family:Sans"
         xml:space="preserve"><tspan
           id="tspan3951"
           y="212.47096"
           x="230.86847"
           sodipodi:role="line">Valido</tspan></text>
    </g>
    <g
       transform="translate(-1.0278625e-6,3.94989e-7)"
       style="display:inline"
       id="g3973">
      <path
         d="m 111.63449,203.23729 c 0,2.97775 -2.41394,5.39169 -5.39169,5.39169 -2.97775,0 -5.39169,-2.41394 -5.39169,-5.39169 0,-2.97775 2.41394,-5.39169 5.39169,-5.39169 2.97775,0 5.39169,2.41394 5.39169,5.39169 z"
         sodipodi:ry="5.3916888"
         sodipodi:rx="5.3916888"
         sodipodi:cy="203.23729"
         sodipodi:cx="106.2428"
         id="path3955"
         style="opacity:0.98000004;fill:url(#linearGradient3978-0);fill-opacity:1;stroke:#9d978c;stroke-width:1;stroke-miterlimit:7;stroke-opacity:1;stroke-dasharray:none;stroke-dashoffset:0;display:inline"
         sodipodi:type="arc"
         transform="translate(203.73514,4.596199)" />
      <text
         xml:space="preserve"
         style="font-size:12px;font-style:normal;font-weight:normal;line-height:123.00000191%;letter-spacing:0px;word-spacing:0px;fill:#000000;fill-opacity:1;stroke:none;display:inline;font-family:Sans"
         x="322.88074"
         y="212.47096"
         id="text3957"
         sodipodi:linespacing="123%"><tspan
           sodipodi:role="line"
           x="322.88074"
           y="212.47096"
           id="tspan3959">Validó</tspan></text>
      <path
         transform="translate(203.73514,4.596199)"
         sodipodi:type="arc"
         style="opacity:0.98000004;fill:#666666;fill-opacity:1;stroke:none;display:inline"
         id="path3980"
         sodipodi:cx="106.2428"
         sodipodi:cy="203.23729"
         sodipodi:rx="2.3864851"
         sodipodi:ry="2.3864851"
         d="m 108.62928,203.23729 c 0,1.31802 -1.06846,2.38648 -2.38648,2.38648 -1.31802,0 -2.38649,-1.06846 -2.38649,-2.38648 0,-1.31802 1.06847,-2.38649 2.38649,-2.38649 1.31802,0 2.38648,1.06847 2.38648,2.38649 z" />
    </g>
  </g>
  <g
     inkscape:groupmode="layer"
     id="layer1"
     inkscape:label="JPG"
     style="display:none"
     transform="translate(-12,-11)">
    <image
       width="497"
       height="304"
       xlink:href="data:image/png;base64,iVBORw0KGgoAAAANSUhEUgAAAfEAAAEwCAIAAAAo5N87AAAAA3NCSVQICAjb4U/gAAAgAElEQVR4 nO3de1xTZ54/8G9/UxNnm8SVoCgahOIFvECrMFSo4z2VwYrwK8JUsPsT7YruiM4qzlCcWqD+ijAL dKswW3Gr0F2sM1wcvGykir8WrAXtC0oXb0iUGoESUELVc7pDfn+Ee3JIgsjl4fN++YecPM853+c5 4cPJSXh4Tq/XEwAAMOF/DXUBAAAwYJDpAADsQKYDALADmQ4AwA5kOgAAO5DpAADsQKYDALADmQ4A wA5kOgAAO5DpAADseN6SRoWXrjzrOgAAwBIrFi7o41GLMt3sXgAAYBCYvcK2NNOJ6Ns7uqcrZrBN nSgd6hIAYPj6vmGEZdq8aeYzDffTAQDYgUwHAGAHMh0AgB3IdAAAdiDTAQDYgUwHAGAHMh2AiFor cjKyLtZxQ10HwFNCpgMQaVTxySX8NBvxUBcC8JRGfaarM/y9lO7d/i2LKR/4izV1hv+iXcXW/n5D /3oN/hGfps5+ePrD9d4Df+1Yrigker2j6Omre4YGeZ5hZLLi90iZJXI7dDrJh7HfOXUMz/9isHqN OL2HKXL5XWbWUBUDMKBG/XW6afw9VWK4r9LdS+m5PCziYBVHRFx1fuwWXy+lu5efb+i+E2q+x3WT 4f+GK3zjlkTEN58/GO2/SOm+KDzuYpPhKDVHty9bpHT3Unr6bk+51NpHPeZaGhXcvTauOj92yzJD PWuD3Q11miy+R6+7nb38I7MrOlt6hcd9sKtrIFzV3vDjar5i6wqlu5df1BVesG8vQlV5hcV9EL1u udJ9UXQpJzBwvvn8x/vWLVe6eyl9u/Yv0LjvE6crPxIZ9qqX0t0rOPyDonucwDB7EZo9E72sP3dC VVn8fLh3NNxzY0FjR+PSmADfWMNz2NR54cr3Lu/+UrX3S4F7R8M9Q03tDYYlZLop2qI/xFXMis/+ +nJOXtqWZZOJo9bzMbsS7ysTThd8XZgWG2inE0xgoZZ1amnAocKCvE10Mvl4DRGRSL4yMvO0qvxy Qd42ycmEzGuC3yjmWpoouKue4rhdifeXJJwuKP9/mcmbnOUWTUFrcUxkqlaZclpVXvjhRjq+I6G0 hToHEtw1ELFrXEawo8jtUKGq/PKpAwtEffa1pKomzWS/hDxV+Rf7PcVCA6/TiFfGflZQXpi2kc/c kWC4XWaycd8nrulsVHSWKCyzUPX16V3zKhO3Hq7umLqew7Ro0kz26se566MqAzP7nLIyYNbN3Asa IiLSlZ+4JFka4iwWOi9i97jPVeWXVeWXj8XOf8ExINxDarS3O7ln2/dW+uklyWshznjjYdjCvRci vmLrCmXnV3K/1DObeI5vbbxfr+Ncp8z0CZpJpFV9+pVkS2agm5yIHDwDIzyJSG1qb9oS0y1Frhs3 eE4RE7fQzfZwbSNHTmISt1anx+2/UFmr4YmI+rhTaqYlZ1SwuqT9IV3ZkYuSjZkhnnIisnGZ6yyl KvNzoi078pVNxHHDKJxXbfZO312k5jzdyNRALOzbPQb6qErkGhro49QRK6YHLnIN3eDjIiUi5zWb vNNiVNc5dzeT8yl0OjpKzaqctPG40klKRJ4R2zxPxhbUbIp0MTlMS2KsH2fZ+NxpVYJVdTCzT3vv 0BlpR87dDXrLoeVqbpl8ScZMEWlL+j4v97L3p2pXH0px7T1Qe+/QGWlpuXdDtzm0XMotk/tFzhze bzyMbrhOJ2q/xmz/d/4PrmJ7Zdxeb+3hXct/qXx17a6US02kq22k8U6WXOKaaykWSUTE80TElcdH JpVNC0vOy/k6M9hRxPNCfcy2NC64k7a6kcbPsuzivNsoqhv52viA9tfjvwg/p2lt7nV92TUQ6/ta WpUlUyS1kfLNnFDjvk+HrlZHL3T+/CC5nZSv75WPgsPskxVn2dSTzUxV5qfFxvstV03uuRqutSy7 yj7Qz4nMnBdOnb3nY37jgTAXEz+6bLzfctWeO3WNa7qQXeUYsqT3T3EYTnCdbpLIafXujNW7iasr zd63NSZtWaanlEpqdGT0VirfO62kCoGWRu5XVbS6RG5b4iLt8xLdopZGBadN6qjHTko/anREJuox Kr7bKGxFL27MS/e39oeBhX37qqobC6aI09bqpApbMZHaVOO+T0evR7X1OpGdxW+WC8+edUMw92Qz rsqCaZHND/bWfXjiqt31G4qg+ElEfZ4Xriot6rh4W1qowCd/ZPODvXVJn54bf/2O88bFk0y2gWEC 1+mmqFUpR4sqNK0klthKJWKpjUjuETq/7khCzjUdEdd0TZWRVcmT3NmWai9UNnHa6vzDRWpDX5Mt TZJOsqX64somTledf1il7qMesy2NC+58SO62alpd1rHiRo5aNFVns0s07dtNFd/Vy2P9K/Wpsdml Gp6Ib1RXnc8pqhHKMKlCyteer2zidE2NnGV9haqycOB88/U7TRwRpylOTS63D/FzEmrc9+mQe4TO rTuSrKrREactTTtYKl292qJ7LH3PniVD6GTyydZ3VZY8c6TuQQtbT8SkXZ8buFTePliB89Jakbz/ 5OSIhEDhsJa6By3kT8Yd0cwN9u7Hj3kYRLhON7qfvjLxzM4X+K/Stx7aryOSTvOOjA9zEUtc4pN0 CalbV6RrieQzFkfEE0m9d28r2Loj5BcixWt+CjkZwsJmlXFLk+TeMTtVhu5LVyr6+k4x21JqVLDo eMdjDkEHIq9HJS3/5XskUby2eLyURCISKr6TzbL4JF1yanzwETVPIomd2+Kw2EDB8qI2FOzYEfJn slufkRE115K+AlVZOvC6/Jjw1Ps/Eo333rAvJcRBuHHfp8Nm1YH9mpiksBVJOhrvEbD70CbL3v0z M3uWDKFzV6aebH1XZdEzR+QWssT2nGpeiIesY7Cmz4uuPDW3XktJy72SiIhIEZObEWRvYm/254rm bXCXEQxrz+n1erONCi9dWbFwAf7OEQO4ysS1u0XJeZGmbpsOmeFZFXTHXXnfN0aUkrfbjaFzNBL/ zpEhjftog3sv7Gu5UVx8o66FI9JVnfy4hBYqLbq9MCqrAgGtxcfKpKsDWQp0VuHeC/v4G6fiE8o0 PBGNn+cXnrzH6MNqQ2F4VgWmaUs+vWoTtMd5qOsA83DvBQBGKdx7AQCAYQ2ZDgDADmT6cNJ9ITAL G4+I144jqFSAEQ6ZDgDAjlH/uRd1hn9wkUeA4ttzZdd5j8OF+z3pbn7C/tRTt7U0xvGVsLj4EDcp EfH3VKl/SD5X1kQiiZ1HYHSKX8m64CK3AMX1c2XXW8l+fnDsgXBPw5uyuvIjMUlHvqrX0XiPgIjY nUumiA0HKvEIGF92qkJNijfiE/cutiEi4qrz4xLTL97W8GMcp0k0pGgvjDNZhkl8zdFd4YevaXkS 2bis/8P+HQslxmM0UaqlYyfiqvMTEg3b7SdLNFrFocIkn/sZ/mFVUYal59UZ/mFVUYaNvYb5Sv3e 8ONqnrauUBKNee1Q7oEFZKZgAOgvXKdTz8VdBdYjNb2YbZNGqjSs+Lqecva0r/hq1fKtrcVxuxK1 SxLyCsovH0/Z5NqR25YsV9vJkjV7TZZq2ditXq3X7GK8li8yDADWQab3XNzVsE7snkA3OZHUedVm b/GVIjXXfUFUyZSZPkGBrjIyLKy6xEUuIqlz0CZvuqK6znUs37pT6SQlsdwzYpunrqCgfbWT9oVY RfYL3Wy1tY1cx5Kze0Lc5CIiidNMRXumC5UhQNxa/WlUuO+i1b+KK9PerzVx49pkqRaOvaNIT7mI xIZ1cc3MZ+9h9qNgAOiXUX/vpZeO9Ui7FgUReXBkWBC1Kv7wruVxP0knu72xJ3rH5J4dpTZSvpYj k8u39s4ssUgiolqehJecFSrDJK48PjLp+uLo5HgPJ+3xdeFVZhaG7SzVwoP2b7Xe7sN8yoIBwGLI 9J4E1yMVXsyWiIg4ba3WsOKrVcu3Ci05a9VSt5av2dur1N7FCBy0f6v1DlzBAGA53HvpSWg9UpOL 2fLNNYYVX9VFqQnljoYVX61avlXu4T+t7sjh4nsccZqq/GNdC/Zas9StBSuvmizVwrH3b7XeHhX2 XIxXqGBNTkTo+6W4tw7wFHCd3ovAeqSmF7OtOxkbkXqnmZfYLQ3sWPHVuuVbJ605EHktKulXv3yP bF5cs9hO3ncZJlm08qrJUi0bez9X6+1RYc/FeAUK5ps1d5p5nggrvwD0F9Z76S91t0/yDXMDWirW xQVmYL0XGKWwLi7ASIF7L2Ae1sUFGCmQ6f3lGJ7/xVDXYKGnLtV29f4zqweoGAB4lnDvBQCAHch0 AAB2INMBANiBTAcAYAcyHQCAHch0AAB2INMBANiBTAcAYAcyHQCAHch0AAB2INMBANiBTAcAYAcy HUao1oqcjKyLdfizSADdIdNhZNKo4pNL+Gk2WPUXoDtkOhFRy6X3fRdtz/rmYriX0r33v13Flvwt FHWG/yLLWvbRnbFrTpNzYu1EmW7PXzuWKwqJXu8oevoyR5J+P82e8vk5IHsYUI0X3/ddtP2Eeqjr GH6wfjqRrjQxpsRxb2boyzahlxcTdfyxt8IkH1wEDlMil99lZg11ETCEbBfvTg4ID4vJ8c4KnDLU xQwruE6nmpz0s/KwGKWNYAt1hr9XWNwH0euWK90XRZdyfM3R7csWKd29lJ6+21MutRJXtTf8uJqv 2LpC6e7lF3WFJzJqY4yrzo/Z4rtI6e7l5x+l0nRtv5sfu2WZl9Ldy88/MrvC+MpIneHvFR73wS7/ RUr3ReFxF5vat+vKj0SGveqldPcKDv+g6J7xVX/3S62uVwb8PVViuK/S3UvpuTws4mAVZ7L43pPQ ayzmau6Obz7/8b51y5XuXkrf7o2N6zcxsQLDFJqTHpMWttdQv5fSNyKjtP24lgzWkrNpcgaM55aI q86P3eLrpXT38vMN3XdCzQucF1MtDbN3MLrnMC0YQtcfALdgLJacCCun6N7RcM+NBY0dNZTGBPjG GmbD1Lxx5XuXm32tLHLZvH3p/cxUk0MYxZDpdy/k1s3aoDT3o75JM9kvIU9V/sV+T7FIvjIy87Sq /HJB3jbJyYTMa+QalxHsKHI7VKgqv3zqwAIRkVGb3gnbWhy3K1G7JCGvoPzy8ZRNrtLO7TGRqVpl ymlVeeGHG+n4joTSFhP11KmlwYcKC/I20cnk4zVERE1no6KzRGGZhaqvT++aV5m49XC1RfdytEV/ iKuYFZ/99eWcvLQtyyYTJ1h890noORaLau4qXiNeGftZQXlh2kY+c0dCOSdUv9h4YvsYpvGc9NKk kSoNx11POXvaj2vJYC04myZnwMTctp6P2ZV4X5lwuuDrwrTYQDudYCIJtaxTSwN6DtOCIXTdozI7 FgtPhHVTNGVlwKybuRcMVy668hOXJEtDnMVC8yZ2j/tcVX5ZVX75WOz8FxwDwj1M/nl0qXvoYlFJ dlWfT7ZRZ9RnuvZ2sdZm2Vzhi3QDkWtooI9TxxNL3Fr9aVS476LVv4or096vNXlVaqaNruzIRcnG PSFuchGRxGmmon3f2rIjX9lE7Al0kxNJnVdt9hZfKVIbZ7PIdeMGzylikf1CN1ttbSNHpC3Lqpy0 cafSSUpiuWfENk9dQUGNJaHO8Rzf2ni/XsdJpsz0CQp0lQkV33MSulhYc7fiQzf4uMhFJHVes8mb rqiuW15/H82M58TEpC0xHDeo87iWDdbM2RSaAeO51ZZ8+pVky55AN7lILHXwDIzYOFfgLQGhlqaG adX5MjsWS59IVk2RvXfojLoT5+4SUcvV3DL5kqCZIrPPnHvZ+1O1qxN2Cv39W5HjSme6UaJh7I2o pzPqM11X10jjHeXWdOHK4yOTyqaFJeflfJ0Z7Cji+X600VY30vhZxsfVVTfytfEB7a86fxF+TtPa 3MczViySiIjniUhXq6MXur6B5XZSvt6iN7TslXF7vbWHdy3/pfLVtbtSLjVZNMCnqLkHqY2Ub+Ys r9+CZl1zYslxB+RsCs2A8dzqahtpvJMlzzdzLbuGadX5Mj+Wfj2RzNdg4/2Wqyb3XA3XWpZdZR/o 50RmnjmcOnvPx/zGA2Euwm9rieV20lbLnuejBt4jtd79qopWl8htS1ykRELPJrNtpHZS+lGjI+p1 GSVV2Ipe3JiX7m/VjxkikiqkVFKjIx/DDrX1OpGdqResvFHaipxW785YvZu4utLsfVtj0palOZsf 4IDUTMRpa3VSha3Y4votHab542oNx1UPyNkUmgGjuc307FF/F6Pz0mukfbDkCWnNWPozwxbUIJsf 7K378MRVu+s3FEHxkwzHEnzmcFVpUcfF29JCzXy0aZR98MkCo/46XTrJlpo1Wmu71BdXNnG66vzD KnX7RoWUrz1f2cTpmho5gTbdyT38p9UdOVx8jyNOU5V/rEjdsX39K/WpsdmlGp6Ib1RXnc8psugW itwjdG7dkWRVjY44bWnawVLp6tVOvS5w5M62VHuhsonTVucf7jiiWpVytKhC00piia1UIpbaiCTm ijc6tHU1883X7zRxRJymODW53D7Ez6mP+ntNrCXDFD5ujeG46qLUhHJHw3HNnilL2gjNgPHcyj1C 59cdSci5piPimq6pMrIqedPnxWTL/pVn5VgsOhH9qEHqHrSw9URM2vW5gUvlfc4btVYk7z85OSIh cFKPPWhyIkLf7/H+vLZWJ+nPD3WGjfrrdPmLPvKmC5VNoY7mbql3dfGO2anauiPkFyLF0pUKecfG qA0FO3aE/Jns1mdkRM011aaHSWsORF6LSvrVL98jmxfXLLbraGOzLD5Jl5waH3xEzZNIYue2OCw2 0JKybFYd2K+JSQpbkaSj8R4Buw9tcu6ddVLv3dsKDFW95qeQE09EJH2B/yp966H9OiLpNO/I+DAX e5G54nsf2sqa6/JjwlPv/0g03nvDvpQQh77q7z2xFgxT+LgnYyNS7zTzErulgR3HNXk2ezHfRmAG jOdWLHGJT9IlpG5dka4lks9YHBEvcF7IZpVxy36WZ91YLDoRkn7UIHILWWJ7TjUvxEPW97zpylNz 67WUtNwriYiIFDG5GUH2RHyz5k4zzxO1n3L++rlqmulnj88cd/OcXq8326jw0pUVCxd8e2eE3baa OtGin981R8PXnfLL+wyfcmWa4XcOTieZv5UBI4WuNGrtforPPLBQYr6xKd83jLBMmzdNakjjPtqM +nsvRE6BW5ZqMxNVRp9oBoDhi792LL1kclhkfwOdVch0IqlnTLzH9bh9WWozn5UAgGGi8WLizuwX IuPx8rq3UX8/nYiIZAvfOfPFUBcBz5RjeD5OMUNsF+N71jRcpwMAsAOZDgDADmQ6AAA7kOkAAOxA pgMAsAOZDgDADmQ6AAA7kOkAAOxApgMAsAOZDgDADmQ6AAA7kOkAAOxApgMAsAPrMoLVHj2oKzr/ +VBXMSro9frlK5VjZROHuhAYMZDpYLX/OnP617/+9VBXMVrk5ub6Brw51FXAiIFMB6uNGTPGkj95 CAPib3/721CXACMJMh36A5kOMDwh08FqbW1tbW1tQ13FaIGpBqsg06E/cJ0OMDwh08Fqer0emT5o MNVgFXw+Haym1+vbTFBnrLCbGXH5Ufdtjy7vmGfn9+f7ptq3PSp/d56d37lHJh8cwQZ2XMh0sAoy HaymN00RsN3n4an00gddmx6Xpp9++KvIZRMFuvSxtxFtgMc1tKcbRhZkOlhNKHpkPpG/os/Tv+wM 9Qefp38uDvhHb5nhqy9TQr2c5HK5/UtrfvuXO4/b00qvf1AY6vTSb0sft3c6FeTk9d4Nw/9LO7p4 haZ8+UCvf1zxnpfrmk1BL9nLXTcVPuh+9Md3/hId5OVkLzccIfpUnYkSjXao1z+uSAv1crKXy+1d lb/9y52OlnWFXdVGn6rT6x9XvPeS/ZrCx4Y+771kH2T4v3FLvV5PXH3OP69xlcvlTsrfdlRissI+ RoRMh35ApoPV9KbvvbS1SV/eHDLufHphneHLusL04olvvT1f1NbW1qb+j7B16fR23s2Gu8WJc4p/ 4x9b8UivJ9Lr26Tz31725Px/Vjxq71Q2MSTYua2tre4vmzq6nN8t/iRs01/q2vR6rqGsflX2zbtl qUul3Y6t/vew33w+PbGktqGh4WbuW08++efYr3vf/TC1Q/V/7PpPReKV2oa7xXGK0+/EfvHIUO3m Dem0Pe9mw93iuAk5mzf/pa6tvdr2GyId/xdqeevbCe8UN9w9v/3J0XdSKx4JVyg4Itx7gf7Ae6Rg NeGLR/GCDRsUy//0ef3akIl09/SfKqe/nTpdr9cTNRR/ckXx9udvzZHpSbZ0V9zS7O2f/PfacYa9 yeZvWPYk8mjl4wULWj4/Wql4K3W6Xq9v+PxPJRM7uqx95zcfvnr0y4Y4IvGcYN/pYnGvdw8Vwdlf BsscxukfP7h794lsgril4WGvMk3tsN5bLG44f/STHL3vsrV/qlxrKKih+JMr07d/GTxHpieZ74Hc 0w3jpPqGzrFT192VeoGW4vlvv71Apifnpd6KD2/W6/Vz9MIVmh5R12wP3KkD9iHToT8Eg2b62s1z /vXfTt8NfutJ3r/dWvCOv8LQ9MHNFpo4fUJ7P9EExTju1gOSGXalHzt/gy/9w9HKB1NvHa2c/na6 Qq/X04ObLdyt91+1e79z53NqH+j1RGMniEwc/0nZ0cj3j5XU0sTpc+dMfMjRxN4/ekzucMJv0lMb 9ia9/+v3t3AK782x6XG+E+nBzRYaN1XW3l02fY6M6Em9nroyveP/gi3HTpAaWoqJa+8lUKHgiAD6 AZkOVuvzJu/UVZvnv//R6W/nfH/84dKEJV1pJ6Ozdx/q9TIioicNtQ/FU2V60pOe9Hq9Xjw7bNW4 /3P0fO6tW3M2LzFEv2y6TDw/5etTwYYFrB7W1nITJjT8UU96Mk7AhuP/uCVv+r9/cW3pxLFET65E /qKkgXqVaWqHigc3rsj8U07909gntSV/3PJm5N5VS9K9ZdNldKGz2oYL/3r84drfzCE96Z880evF pH/S8MRQuamWm6d3jov0nWOsF6zQ9Ii6zXb/ThOMTrifDlYTvJ/e1tbW1ma7eNuShmNJSWf0/tte EnVufSVsfu1He7O/bW57dOfzpL0XZP5BLmP01PFbqaLZoUHis3/Yf2v+psW2XV1uJcXn3njU1tb8 ZXzgosCkbx/ru7r08PjxQ45ozBhRW9ujG6ffj/rsB457/LhXZSZ22Hz3eOT/3vJv3za3ieS2U8Ri 2QRpW1ub7StB8299FJ9741Hbozun46M+uvBkTJt0toK+yyuua3t058y/nv2Bozahlt2L7Py/UIVC I8L9dOgXZDpYzeRnM7rIXt70Wst/FYnXhc4Wd22dGnQwK4j76PXZU5wX/+67hf9y4nfzRZ13MPR6 vd55TdjUH2hh+Cuybl0ywn74o9J5ypTZ4Rem78t4t1eXbqau+WDfnJLQ2VOmuC6O+GzCtv+7RNZw paF3I+MdymZvTf79hM/emD1livPrh2W/PbRztliv108NO3g4qOWPSucpzsr9LWEZB4Mm6Cco9/1+ 4Xc7X57y8vqz84NmywxlmGrZs8j2/wtXaHZKh/RswwjznCXPmMJLV1YsXPDtHd0gFDSApk6UDnUJ bMr+JO31118f6ipGi7/+9a8h/xAx1FWw6fuGEZZp86ZJDWncRxvcTwerGe69DHUVowWu08EqyHSw Gm4IDCZMNVgFmQ79gaABGJ6Q6WC1n376CZk+aH766aehLgFGEmQ6WG3ZipX5+fk/+9nPhroQ9v3t b39boXxtqKuAkQSZDlZTOM95y3nOUFcBACbg8+kAAOxApgMAsAOZDgDADmQ6AAA7kOkAAOxApgMA sAOZDgDADmQ6AAA7kOkAAOxApgMAsAOZDgDADmQ6AAA7kOkAAOxApgMAsAOZPsDuXcw+kl3aONRl AMDohEwfUFx5emxmqcTZdqgLAYDRCZlORETqDP/l0aVc14Z7FzN2hAZ4eindvfz8IxLzb7RaspvG i5llcyPjVtsMQD2LdhXr+vXoMPQ0BVval792cLvvIqW7l/LVtdEnbvD9OhjAiIe/c0RERI7h+Z93 fdVycV9YTPXSPfvPrHS15e8W53y4J3yXLjM91NHMbmyVSWeUz7JOECaesTo2c5/bZKo4vHtrVKZH XrjTUJcEMPhwnU5EHReD7dfpd/+cXGq/M3HvaldbMZHUweetfcmL648cLG2hnpeN3Xtxd/Njtywz XNdHZlcYX1eqM/y9wvZ+EL1uudLdS+kbkVHa3oavObp92SKlu5fS03d7yqVeLwgEHuWbz3+8r31X nYdTZ/h7hcUZDrEoupTre899lM3fUyWG+yrdvZSey8MiDlZxRMRV58du8fVSunv5+YbuO6HmhafC qKWh4IPR/ouU7ovC4y42CQ+t56E/PBMdflzNV2xdoXT38ou6wgvXLHJSKj0dbcRiG7eVHra66sZu r7oARg9kOhHRvcoqLYlEhi+0Fee1k/xfmdTtcYlbgDtVFmkEY6K1OCYyVatMOa0qL/xwIx3fkVDa YqJZk0aqjP2soLwwbT3l7Eko54iIRPKVkZmnVeWXC/K2SU4mZF7rcRShR+s04pWGXW3kM3e074qI mjST/RLyVOVf7PcU971n4bK1RX+Iq5gVn/315Zy8tC3LJhNHredjdiXeVyacLvi6MC020E4neC9K qGWdWhpwqLAgbxOdTD5eIzS0Xoee6vi7jGBHkduhQlX55VMHFogsmGq+5lxJ42Rve7FQhQAsw70X ulcQHZbQ+saB/Z6GFNDV6+gFe2nPRlI7MV8reFNXW3bkK5uI44FuciJyXrXZO313kZrzdOsVKyLX jRuWuEiJyDlok/eRGNV1zt1NTOLW6vS4/RcqazU8EVGvo5h+VOQausHHsKs1m7zTDLsybA/0cZL2 2dds2RzP8a2N9+t1nOuUmT5BM4m0qk+/kmzJNLR08AyM8CQitcmpKN3dK4oAAAzGSURBVDHdUuS6 cYPnFDFxC91sD9c2cuRkcuDGh1aXWDPVTcX/Er0nd3xkpnKK0MkCYNqoz3RdaWpylceBzB0LJe1b pAoplWh0RN1jXVfPicYLXvnpqhv52vgAZXznFpGHmZf+UhspX8sREVceH5l0fXF0cryHk/b4uvCq Hu/u9f1or131YravUNn2yri9VfGHdy2P+0k62e2NPdE7Jtc20ngned9DMuzTTEuxSCKiWl6oPBOH tqxmA3XugeM/bTn+YaijyIJaARg06jNdW3GdV0TOlXRtkbusmlyX/1VdUGDn7ZfWilPlOsdIx/ZQ 53sHqFRhK3pxY166vyWpR0REnLZWK1XYionUVRWtLpHblrhIjS+kie73+WjHrnSGXVnbV7BskdPq 3RmrdxNXV5q9b2tM2rJMTymV1OjIp9fLF1NTIdDSwvKMDp02qUevvqdaNN5+xouzJiPQYfQa9ffT 5S72VHviXFWjtu7apYL8ylYihzV7lLrkd+IKqhs5It3d4qP7dp4SrdnkISMiubMt1V6obOK01fmH i9TtO/FY/0p9amx2qYYn4hvVVedzimqMr5z55po7TRwRpy5KTSh3DPFzIiLpJFuqL65s4nTV+YdV 6l5dhB7lm68bdqUpTk0utzfsysK+XWMXKFutSjlaVKFpJbHEVioRS21Eco/Q+XVHEnKu6Yi4pmuq jKxKXmgqTLQ0yWR5xoeWKKR87fnKJk7X1MiZm2r7wLSsdzxxJx1GsVF/nS71iYsv2xEbuTyBSPLi +gNLiEi2IDIzrSD14L61cfU6IqIXXtubGrVAQkQk9d69rWDrjpBfiBSv+SnkZAgsm2XxSbrk1Pjg I2qeRBI7t8VhsYHGB6s7GRuReqeZl9gtDdyXEuJARCT3jtmpMuxw6UpF76tPwUfr8mPCU+//SDTe e0PHrizt20mgbOkL/FfpWw/t1xFJp3lHxoe5iCUu8Um6hNStK9K1RPIZiyPiBadilXFLk0yWZ3xo e4raULBjR8ifyW59RkbU3D6nWp3hH1YVdTrJ/KsEAEY9p9frzTYqvHRlxcIF394ZQb/lQkQ0deJA fGers/3DSiJOf7jqKXeGuAEYZr5vGGGZNm+a1JDGfbQZ9fdezJrsOktUe/ZSU4um+h4+8gwAwxsy 3Ryxe9Qej5q9IYsCEku0Q10MAECfRv39dAvYKt/JV77ztHtxDM//YiCqAQAQhut0AAB2INMBANiB TAcAYAcyHQCAHch0AAB2INMBANiBTAcAYAcyHQCAHch0AAB2INMBANiBTAcAYAcyHQCAHch0AAB2 INMBANiBTAcAYAcyHQCAHch0AAB2INMBANiBTAcAYAcyHQCAHch0AAB2INMBANiBTAcAYAcyHQCA Hch0AAB2INMBANiBTAcAYAcyHQCAHch0AAB2INMBANiBTAcAYAcyHQCAHc8PdQHP0PifD3UFADCM fT/UBTwLuE4HAGAHMh0AgB3IdAAAdiDTAQDYgUwHAGAHMh0AgB3IdAAAdiDTAQDYgUwHAGAHMh0A gB3IdAAAdiDTAQDYgUwHAGAHMh0AgB3IdAAAdiDTAQDYgUwHAGAHMh0AgB3IdAAAdiDTAQDYgUwH AGAHMh0AgB3IdAAAdiDTAQDYgUwHAGAHMh0AgB3I9JGutSgywGFV6tWWoS4EmMdV/X6p37rP6oa6 DujL80NdwOiiVqu///57nU5HRFKpVKFQTJs27an2eE+VXGwTkRUxX0ZE9KQi0Se0+t3z6WtsTTd/ UpHoE1r77pcfrpE91WEH1sBPS08jcVqG4Zw8LM68aBt2bN2kASwDBhyu0wdJW1vblStX7t+/P3ny 5Jdeeumll16aNGmSRqO5evVqW1ubqR6t/xXh57Be1dBjI381LsBhTU5tx9cPtaI1B97f6SLq1flJ ReICty0nGwd+IAPrGU2LkBExLcN2Tlo4j3dTAqdbOAwYIsj0QXL16tWffvppxowZ48aNGzNmzJgx Y/7+7/9+xowZHMd98803pnpIXlnvLvs252L3bzau+sTZH18O9VZ0bBjntjp82aSxRp3HukWcObNf KXAJNnw8o2kRMiKmZdjOicI38LUpva8eYLhBpg+G27dv//jjjw4ODryRadOm6XS627dvG/ca5xaw WHQ763zX7csn13NUuhdDl00ioltZ0Ut9/BzclA5uft7rE0/U8N37PqlI8/WNVhm+ybm7J2O2LHBT OrgFrI0r+6GzUUt1VmT4XDelg0dwWEJpz6u8wYBpMdZ9Tm7cuJGZmZmZmXnjxo3RPCdgFWT6YLh1 65ZMJuMEyGSy6upqE91k7qHLXvjmREnHy2f+m6yylnmBiw2XVFJFUNS+M/mHz2dFv05F/xyRecv0 wfmrcbv/6YLN1kNp5z/bv9NjfMf21qK9u6Kvu+zPOnwmJYBOvLM56+4AD9ucZzstn0WHjsBp6ZyT mzdvHjt27Nq1a9euXTt69OjNmzdH7ZyAVZDpg+Hhw4c///nPhR79u7/7uwcPHph6RPRykMeE66dU 94iIiKvKKuZfDvWYSERE0/0jtvp7znFymO7ms3OHp0xTXm3yoy8tpclnW5Vx0eGvOk93cV3s6zzB sL2x7NAFeiMuco2bw5xXQ/bvUHyTceo77unGaaVnOy0uPhtH4LR0zklZWZler+/cXlZWRqN1TsAq yPRhbaxboFJae+LsXSJ6Upp7kXMN97Fpf6yx6kTCvnVBYd4+fvPCS1qITH6XPdFUVPOTlsyS9N7e WP492S10ar89OmHWizJt1Q8j5Bu1z2kpz4qL9l8VMNdNOXM0TQvmBAyQ6YNBIpE8evRI6NFHjx5J pVLTj4mdQ1eN/+8TJbeo9ZsTpeQZ8Irhg2Vc+e+DIt+rGL8mYtfHGWlnUryFP4PHE40Ri59uAM/G wE9LS/lvg3a/V/HCmohdH2el5SWMvGnpnBMPD4/u2w1fjs45Aasg0wfDlClTtFqt0KM//PDD1KlT BR4UOQctmao5paoozyimV9a7jyMioic1RRe1it8diAxd5j7HxWGq7QtC34ljbZ0nUP1VDW+03X0q 1Rd1vF32w/XbLXLXCYP7/Tzw06Ip+kqreDflnXB/n4VuzrOnjLxp6ZwTBweHN998c+bMmTNnznzz zTcdHBxotM4JWAWZPhhmzZolEolMvrt169atsWPHzpgxQ6jvWBfl6/b1h+LSL4o9Q93aXxePlTpP oLqTJ0q/q7n73Zc578UV/SDU39YjdN6Pf47LKLpWffV8TnTMuR86tocv5f+6N/Vkxd3vvsyOTqmd Heo3Z3C/UQd+WmydJ1DdybOlt0bstHSfEwcHh8DAwMDAQEOgj9o5Aasg0weDWCx2c3N7/vnnb9y4 0dzcbPhcR3Nz882bN0UikZubm7ivV7zOQavsWq7Xi306Xk0T0RTlRwlLuBPv+Ppv2pBaIVvlLvyC elJQ6rtvkGrDuojgAyUyH7eOlpLX4pLenXUtOnST79ZcLujdY+EOAzVeCw38tNgqP0pYwh15Z9mI nRbMCTyl57q/ty6k8NKVFQsXfHtHNwgFDaB50wTuPA4FvV7f0tJy+/bt+vr6zl/4njx5sqOjo0wm e+6554a6wKGBaTGGORk0IzHTDGncRxus9zJInnvuuXHjxs2ePfvFF1/8n//5HyJ6/vnnx44d2+dl F/swLcYwJ/A0kOmDSiwW4zvTGKbFGOYE+gf30wEA2IFMBwBgBzIdAIAdyHQAAHYg0wEA2IFMBwBg BzIdAIAdyHQAAHYg0wEA2IFMBwBgBzIdAIAdyHQAAHYg0wEA2IFMBwBgBzIdAIAdyHQAAHYg0wEA 2IFMBwBgBzIdAIAdyHQAAHYg0wEA2IFMBwBgBzIdAIAdyHQAAHYg0wEA2PH8UBfwDH17RzfUJQAA DCpcpwMAsAOZDgDADmQ6AAA7kOkAAOxApgMAsAOZDgDADmQ6AAA7kOkAAOxApgMAsMOK3yOdN036 7OoAAICnh+t0AAB2INMBANiBTAcAYAcyHQCAHch0AAB2INMBANiBTAcAYAcyHQCAHch0AAB2INMB ANiBTAcAYAcyHQCAHch0AAB2INMBANiBTAcAYAcyHQCAHch0AAB2INMBANiBTAcAYAcyHQCAHch0 AAB2INMBANiBTAcAYAcyHQCAHch0AAB2INMBANiBTAcAYAcyHQCAHch0AAB2INMBANiBTAcAYAcy HQCAHch0AAB2INMBANiBTAcAYAcyHQCAHch0AAB2INMBANiBTAcAYAcyHQCAHch0AAB2PG9hu8JL V55pHQAA8PSe0+v1Q10DAAAMDNx7AQBgBzIdAIAdyHQAAHYg0wEA2IFMBwBgBzIdAIAdyHQAAHYg 0wEA2IFMBwBgx/8HrIwDhn7Gsj8AAAAASUVORK5CYII= "
       id="image3047"
       x="0"
       y="0"
       style="fill:#666666;fill-opacity:1" />
  </g>
</svg>
