<?xml version="1.0" encoding="UTF-8" standalone="no"?>
<!-- Created with Inkscape (http://www.inkscape.org/) -->

<svg
   xmlns:dc="http://purl.org/dc/elements/1.1/"
   xmlns:cc="http://creativecommons.org/ns#"
   xmlns:rdf="http://www.w3.org/1999/02/22-rdf-syntax-ns#"
   xmlns:svg="http://www.w3.org/2000/svg"
   xmlns="http://www.w3.org/2000/svg"
   xmlns:xlink="http://www.w3.org/1999/xlink"
   xmlns:sodipodi="http://sodipodi.sourceforge.net/DTD/sodipodi-0.dtd"
   xmlns:inkscape="http://www.inkscape.org/namespaces/inkscape"
   id="svg3039"
   version="1.1"
   inkscape:version="0.48.4 r9939"
   width="475.1875"
   height="155.125"
   sodipodi:docname="headphone_type.svg">
  <metadata
     id="metadata3045">
    <rdf:RDF>
      <cc:Work
         rdf:about="">
        <dc:format>image/svg+xml</dc:format>
        <dc:type
           rdf:resource="http://purl.org/dc/dcmitype/StillImage" />
        <dc:title />
      </cc:Work>
    </rdf:RDF>
  </metadata>
  <defs
     id="defs3043">
    <linearGradient
       id="linearGradient3078">
      <stop
         style="stop-color:#dedede;stop-opacity:1;"
         offset="0"
         id="stop3080" />
      <stop
         style="stop-color:#f6f6f6;stop-opacity:1;"
         offset="1"
         id="stop3082" />
    </linearGradient>
    <linearGradient
       id="linearGradient3897">
      <stop
         style="stop-color:#ebebeb;stop-opacity:1;"
         offset="0"
         id="stop3899" />
      <stop
         style="stop-color:#5d1c1c;stop-opacity:0;"
         offset="1"
         id="stop3901" />
    </linearGradient>
    <linearGradient
       id="linearGradient3869">
      <stop
         id="stop3905"
         offset="0"
         style="stop-color:#f5f5f5;stop-opacity:1;" />
      <stop
         style="stop-color:#f5f5f5;stop-opacity:1;"
         offset="1"
         id="stop3873" />
    </linearGradient>
    <linearGradient
       id="linearGradient3859">
      <stop
         style="stop-color:#f5f5f5;stop-opacity:1;"
         offset="0"
         id="stop3861" />
      <stop
         style="stop-color:#000000;stop-opacity:0;"
         offset="1"
         id="stop3863" />
    </linearGradient>
    <linearGradient
       inkscape:collect="always"
       xlink:href="#linearGradient3078"
       id="linearGradient3084"
       x1="242.13281"
       y1="110.715"
       x2="242.13281"
       y2="90.389732"
       gradientUnits="userSpaceOnUse" />
    <linearGradient
       inkscape:collect="always"
       xlink:href="#linearGradient3078"
       id="linearGradient3924"
       x1="106.67228"
       y1="209.10641"
       x2="106.67228"
       y2="196.91612"
       gradientUnits="userSpaceOnUse" />
    <linearGradient
       inkscape:collect="always"
       xlink:href="#linearGradient3078"
       id="linearGradient3953"
       gradientUnits="userSpaceOnUse"
       x1="106.67228"
       y1="209.10641"
       x2="106.67228"
       y2="196.91612" />
    <linearGradient
       inkscape:collect="always"
       xlink:href="#linearGradient3078"
       id="linearGradient3961"
       gradientUnits="userSpaceOnUse"
       x1="106.67228"
       y1="209.10641"
       x2="106.67228"
       y2="196.91612" />
    <linearGradient
       inkscape:collect="always"
       xlink:href="#linearGradient3078"
       id="linearGradient3978"
       gradientUnits="userSpaceOnUse"
       x1="106.67228"
       y1="209.10641"
       x2="106.67228"
       y2="196.91612" />
    <linearGradient
       inkscape:collect="always"
       xlink:href="#linearGradient3078-0"
       id="linearGradient3978-0"
       gradientUnits="userSpaceOnUse"
       x1="106.67228"
       y1="209.10641"
       x2="106.67228"
       y2="196.91612" />
    <linearGradient
       id="linearGradient3078-0">
      <stop
         style="stop-color:#dedede;stop-opacity:1;"
         offset="0"
         id="stop3080-0" />
      <stop
         style="stop-color:#f6f6f6;stop-opacity:1;"
         offset="1"
         id="stop3082-4" />
    </linearGradient>
    <linearGradient
       inkscape:collect="always"
       xlink:href="#linearGradient3078-0"
       id="linearGradient3953-7"
       gradientUnits="userSpaceOnUse"
       x1="106.67228"
       y1="209.10641"
       x2="106.67228"
       y2="196.91612" />
    <linearGradient
       id="linearGradient3997">
      <stop
         style="stop-color:#dedede;stop-opacity:1;"
         offset="0"
         id="stop3999" />
      <stop
         style="stop-color:#f6f6f6;stop-opacity:1;"
         offset="1"
         id="stop4001" />
    </linearGradient>
    <linearGradient
       inkscape:collect="always"
       xlink:href="#linearGradient3078-0"
       id="linearGradient3924-2"
       x1="106.67228"
       y1="209.10641"
       x2="106.67228"
       y2="196.91612"
       gradientUnits="userSpaceOnUse" />
    <linearGradient
       id="linearGradient4004">
      <stop
         style="stop-color:#dedede;stop-opacity:1;"
         offset="0"
         id="stop4006" />
      <stop
         style="stop-color:#f6f6f6;stop-opacity:1;"
         offset="1"
         id="stop4008" />
    </linearGradient>
  </defs>
  <sodipodi:namedview
     pagecolor="#ffffff"
     bordercolor="#666666"
     borderopacity="1"
     objecttolerance="10"
     gridtolerance="10"
     guidetolerance="10"
     inkscape:pageopacity="0"
     inkscape:pageshadow="2"
     inkscape:window-width="956"
     inkscape:window-height="1018"
     id="namedview3041"
     showgrid="false"
     showguides="true"
     inkscape:guide-bbox="true"
     inkscape:snap-bbox="true"
     inkscape:snap-bbox-midpoints="false"
     inkscape:snap-bbox-edge-midpoints="true"
     inkscape:bbox-nodes="true"
     inkscape:zoom="1.4142136"
     inkscape:cx="230.94983"
     inkscape:cy="-1.3783047"
     inkscape:window-x="0"
     inkscape:window-y="0"
     inkscape:window-maximized="0"
     inkscape:current-layer="layer2"
     fit-margin-top="0"
     fit-margin-left="0"
     fit-margin-right="0"
     fit-margin-bottom="0">
    <sodipodi:guide
       orientation="1,0"
       position="-11.90625,166.03125"
       id="guide3053" />
    <sodipodi:guide
       orientation="1,0"
       position="485.09375,166.03125"
       id="guide3055" />
    <sodipodi:guide
       orientation="0,1"
       position="-11.90625,166.03125"
       id="guide3057" />
    <sodipodi:guide
       orientation="0,1"
       position="485.09375,-137.96875"
       id="guide3059" />
    <sodipodi:guide
       orientation="1,0"
       position="2.09764,-84.967631"
       id="guide3959" />
    <sodipodi:guide
       orientation="1,0"
       position="0.097640037,-86.947612"
       id="guide3961" />
    <sodipodi:guide
       orientation="1,0"
       position="1.09375,-85.96875"
       id="guide3963" />
    <sodipodi:guide
       orientation="1,0"
       position="60.597641,-74.967631"
       id="guide3965" />
    <sodipodi:guide
       orientation="1,0"
       position="414.08934,-74.967631"
       id="guide3967" />
    <sodipodi:guide
       orientation="0,1"
       position="473.08937,153.02918"
       id="guide4031" />
    <sodipodi:guide
       orientation="0,1"
       position="414.08934,-74.967636"
       id="guide4033" />
    <sodipodi:guide
       orientation="0,1"
       position="475.08543,-86.947612"
       id="guide3054" />
    <sodipodi:guide
       orientation="0,1"
       position="473.08937,2.00649"
       id="guide3056" />
    <sodipodi:guide
       orientation="0,1"
       position="502.5885,0.006485"
       id="guide3058" />
  </sodipodi:namedview>
  <g
     inkscape:groupmode="layer"
     id="layer2"
     inkscape:label="SVG"
     style="display:inline"
     transform="translate(-11.90625,-10.90625)">
    <rect
       ry="0"
       y="13.00207"
       x="14.00389"
       height="151.02269"
       width="470.99173"
       id="rect3829"
       style="fill:#d2e0f2;fill-opacity:1;stroke:none" />
    <rect
       y="34.337593"
       x="72.60862"
       height="123.34159"
       width="353.28217"
       id="rect4027"
       style="fill:#ffffff;fill-opacity:1;fill-rule:evenodd;stroke:none" />
    <rect
       style="fill:#eef6ff;fill-opacity:1;fill-rule:evenodd;stroke:none"
       id="rect4029"
       width="353.4917"
       height="33.763874"
       x="72.503883"
       y="13.002071" />
    <rect
       style="fill:none;stroke:#bbc6cc;stroke-width:0.99967736;stroke-miterlimit:10;stroke-opacity:1;stroke-dasharray:none"
       id="rect3051"
       width="474.18796"
       height="154.12294"
       x="12.40381"
       y="11.40199"
       ry="0" />
    <text
       sodipodi:linespacing="123%"
       id="text3845"
       y="33.4375"
       x="84.75"
       style="font-size:12px;font-style:normal;font-weight:normal;line-height:123.00000191%;letter-spacing:0px;word-spacing:0px;fill:#000000;fill-opacity:1;stroke:none;font-family:Sans"
       xml:space="preserve"><tspan
         id="tspan3849"
         y="33.4375"
         x="84.75"
         sodipodi:role="line">¿Qué tipo de audífonos usaste?</tspan></text>
    <g
       id="g3996"
       transform="translate(7.5000003e-7,-564.33836)">
      <path
         inkscape:connector-curvature="0"
         id="path3058"
         d="m 127.43616,701.18684 c 0.0956,-1.3958 0.25281,-4.5563 0.34921,-7.0233 0.1308,-3.34719 0.2788,-4.75508 0.5832,-5.54783 1.07242,-2.79287 2.00583,-13.63507 1.32746,-15.41934 l -0.21944,-0.57716 -3.73487,0.1201 c -2.05418,0.0661 -3.75295,0.13334 -3.77505,0.14952 -0.0221,0.0163 0.16691,2.20683 0.42002,4.86813 0.88062,9.25915 1.37047,11.29887 2.85649,11.89421 1.79546,0.71931 1.78535,0.71004 0.86963,0.79687 l -0.8517,0.0808 -0.14967,1.77063 c -0.0823,0.97384 -0.0838,3.54454 -0.003,5.71266 0.10279,2.77046 0.0719,3.87184 -0.10374,3.70592 -0.28898,-0.27291 -0.75228,-5.59133 -0.75989,-8.72305 -0.003,-1.60027 -0.11988,-2.38922 -0.46216,-3.14332 -1.04656,-2.30573 -3.21298,-18.33791 -4.0111,-29.68331 -0.13702,-1.94764 -0.42119,-5.61274 -0.63152,-8.14468 -0.71831,-8.64715 0.007,-13.77584 2.7562,-19.50321 1.5562,-3.24139 3.38153,-4.29342 4.29038,-2.47276 0.51525,1.03217 0.78503,1.18593 1.82038,1.03748 0.9339,-0.13389 8.4808,-3.77686 9.72328,-4.69353 1.61355,-1.19044 3.5313,-1.34453 5.36446,-0.43105 2.10749,1.05022 3.41428,3.57716 4.04004,7.81226 0.46888,3.17345 0.23692,10.24596 -0.47473,14.47357 -0.70294,4.17591 -2.07345,6.35739 -4.30823,6.85751 -1.48269,0.33181 -3.14083,0.0575 -5.07624,-0.83965 -1.18673,-0.55016 -1.62262,-0.95331 -4.7195,-4.36531 -0.80714,-0.88931 -1.03245,-1.02033 -1.38306,-0.80434 -0.23037,0.1419 -0.50681,0.67308 -0.61432,1.18038 -0.10749,0.50731 -0.22321,8.09324 -0.25716,16.85763 -0.0515,13.31355 -0.12345,16.28478 -0.4369,18.05994 -0.49991,2.8311 -0.64568,3.38476 -1.16312,4.41796 -0.38393,0.7666 -0.43689,1.43779 -0.42138,5.34116 0.0128,3.22985 -0.0918,5.06011 -0.3782,6.61867 -0.21774,1.18488 -0.45067,2.15431 -0.51761,2.15431 -0.0669,0 -0.0435,-1.14203 0.0522,-2.53783 z m 1.53499,-29.41303 0.59019,-0.27982 0.11804,-11.26332 c 0.11684,-11.14816 0.12326,-11.26853 0.62773,-11.77282 0.70435,-0.70406 1.56463,-0.44517 2.64585,0.7962 2.25255,2.58622 3.43348,3.68526 4.5743,4.25714 1.44609,0.7249 2.87726,0.9953 4.07692,0.77025 1.02029,-0.19141 2.56921,-1.5245 3.19376,-2.74872 1.41976,-2.78296 2.09222,-8.47389 1.66354,-14.07826 -0.3036,-3.96901 -1.01473,-8.13118 -1.51993,-8.89593 -1.23255,-1.86582 -3.3726,-2.75623 -5.48715,-2.28302 -1.78502,0.39947 -1.87626,0.59216 -1.28244,2.70836 0.83532,2.97693 1.22664,5.9831 1.23209,9.46532 0.005,3.10764 -0.42595,6.77563 -1.00096,8.52225 l -0.22542,0.68478 0.11123,-0.76144 c 0.97557,-6.678 1.03826,-10.76375 0.23463,-15.29184 -0.74595,-4.20315 -1.36201,-4.40283 -5.62145,-1.82212 -1.93821,1.17432 -3.16307,1.75347 -4.11284,1.94464 -0.74393,0.14975 -1.53659,0.36906 -1.76148,0.48736 -0.33756,0.17755 -0.50229,0.0196 -0.94432,-0.90564 -0.56201,-1.17638 -1.18715,-1.49739 -2.00411,-1.02911 -0.34842,0.1997 -0.29937,0.23249 0.28807,0.19257 0.56012,-0.0381 0.71289,0.0505 0.73143,0.42406 0.0191,0.38641 0.006,0.39468 -0.0769,0.0455 -0.14819,-0.62972 -0.61578,-0.35388 -0.86334,0.50932 -0.24584,0.85719 0.14541,2.02345 0.62565,1.86485 0.16045,-0.0529 0.34657,-0.45972 0.41362,-0.90383 0.0929,-0.61519 0.22652,-0.15182 0.56112,1.94546 0.28683,1.79791 0.38094,3.14931 0.27129,3.89529 -0.2471,1.68092 -3.60849,8.24143 -5.41307,10.56481 l -0.71745,0.9237 0.54159,8.1653 c 0.29787,4.4909 0.66028,9.42752 0.80535,10.97029 0.26327,2.7999 0.26506,2.80559 0.98416,3.13412 0.85974,0.39278 5.77757,0.22088 6.74038,-0.2356 z m 14.19111,-23.52739 c -0.0112,-0.0649 0.18944,-1.12728 0.44571,-2.36077 0.25627,-1.23351 0.47992,-2.82704 0.49699,-3.54117 0.0171,-0.71414 0.11213,-1.61714 0.21125,-2.00667 0.36066,-1.41741 0.25152,1.59745 -0.14044,3.87929 -0.32494,1.89157 -0.95235,4.38596 -1.01351,4.02932 z m -8.46696,-7.49547 c -0.27137,-0.68793 -0.19437,-4.0307 0.0996,-4.32468 0.73086,-0.73085 1.66707,3.06128 1.04344,4.22654 -0.32985,0.61631 -0.9187,0.66685 -1.14304,0.0981 z m 9.45558,-2.89195 c 0,-0.71414 0.0442,-1.00628 0.0983,-0.64922 0.0541,0.35707 0.0541,0.94136 0,1.29843 -0.0541,0.35706 -0.0983,0.0649 -0.0983,-0.64921 z m -0.2608,-2.24274 c 0.005,-0.38953 0.0577,-0.52031 0.11758,-0.29061 0.0598,0.2297 0.0559,0.54841 -0.009,0.70823 -0.0647,0.15982 -0.11363,-0.0281 -0.10882,-0.41762 z m -9.81186,-1.4837 c -0.063,-0.10189 -0.1892,-0.84554 -0.2805,-1.65255 -0.1851,-1.63604 0.0279,-1.855 0.82216,-0.84525 0.482,0.61277 0.62664,1.5783 0.34599,2.30965 -0.1501,0.39113 -0.69129,0.50586 -0.88765,0.18815 z m -0.84685,-3.84828 c 0.14493,-0.27081 0.32114,-0.43474 0.39158,-0.36429 0.1946,0.19457 -0.1171,0.85668 -0.4033,0.85668 -0.1746,0 -0.171,-0.15098 0.0117,-0.49239 z m -10.57885,13.69556 c 1.58404,-2.84873 2.21833,-4.42753 2.49974,-6.22212 0.28549,-1.82056 0.10823,-2.71803 -0.58925,-2.98322 -0.75302,-0.28629 -1.34183,-1.70962 -1.18645,-2.86804 0.0659,-0.49155 0.0787,-0.89372 0.0283,-0.89372 -0.22968,0 -1.34244,2.54711 -2.20275,5.04208 -1.26941,3.68144 -1.73034,5.99921 -1.53552,7.72121 0.16489,1.45747 0.87063,2.91425 1.33657,2.75894 0.15431,-0.0515 0.89653,-1.20125 1.64938,-2.55513 z"
         style="fill:#000000" />
      <path
         inkscape:connector-curvature="0"
         id="path3060"
         d="m 197.2032,703.33184 c -0.16539,-0.19929 -0.38738,-1.23509 -0.49331,-2.30175 -0.10592,-1.06669 -0.30374,-3.05489 -0.43959,-4.41824 -0.13585,-1.36335 -0.23538,-5.17136 -0.22118,-8.46223 l 0.0258,-5.98344 -0.60032,-0.62674 c -1.45697,-1.52112 -1.54365,-2.35074 -1.92808,-18.45062 l -0.16067,-6.72823 -1.13741,-2.59685 c -1.70561,-3.89412 -2.05309,-4.84469 -2.73217,-7.47438 -0.66878,-2.58977 -0.65863,-3.80779 0.0441,-5.28861 0.30468,-0.64207 0.32873,-0.95124 0.12047,-1.54865 -0.3633,-1.0422 0.09,-2.42107 1.16876,-3.55505 1.25341,-1.31762 2.07163,-1.18518 2.45252,0.39694 l 0.17051,0.70824 0.45225,-0.55734 c 0.56696,-0.69871 0.56335,-1.34864 -0.02,-3.57402 -0.25523,-0.97382 -0.46588,-1.99977 -0.46811,-2.27988 -0.006,-0.69834 1.93772,-2.39994 3.93344,-3.44425 2.81025,-1.47055 4.75157,-1.94075 7.98444,-1.93386 4.19921,0.009 7.36192,1.01197 9.91527,3.14451 1.41842,1.18464 2.01728,1.19167 2.38774,0.028 0.34243,-1.07567 1.67975,-2.00998 3.55378,-2.48285 2.07876,-0.52454 7.26871,-0.55974 9.43541,-0.0639 3.23102,0.7393 6.49852,2.33171 8.3042,4.04708 1.54361,1.4664 2.41352,4.63493 2.88994,10.5264 0.56758,7.01864 -0.48158,10.28737 -4.06692,12.6709 -2.0195,1.34257 -5.45345,2.77741 -7.79837,3.25846 -2.06754,0.42416 -6.44736,0.49307 -7.85953,0.12365 -1.72085,-0.45016 -2.13523,-0.70104 -2.71951,-1.64642 -0.69219,-1.12 -1.04132,-1.1734 -1.52729,-0.23364 -0.89553,1.73176 -4.78382,3.83262 -9.17787,4.95878 -1.54065,0.39487 -2.88405,0.76917 -2.98535,0.83177 -0.28742,0.17763 -0.65514,3.4473 -1.17852,10.47912 -0.5523,7.42045 -0.93214,9.51934 -1.88358,10.40812 -0.74738,0.69816 -1.29573,1.69412 -1.52891,2.77694 -0.0907,0.42144 -0.19212,4.66494 -0.22525,9.43003 -0.0423,6.08437 -0.13819,8.68974 -0.32203,8.75102 -0.49633,0.16545 -0.57712,-1.62509 -0.4911,-10.8829 l 0.0863,-9.28784 1.19239,-1.30466 c 0.77311,-0.84591 1.34121,-1.75148 1.61563,-2.57534 0.45208,-1.35729 0.81854,-6.33121 0.8382,-11.37678 0.0143,-3.66081 0.37716,-6.01845 1.03694,-6.73686 0.79711,-0.86794 1.52064,-1.14502 4.41691,-1.69161 5.50202,-1.03836 8.33255,-3.27017 9.05031,-7.13599 0.18683,-1.00623 0.68104,-1.36033 1.89859,-1.36033 1.03241,0 1.11107,0.43011 0.11509,0.62931 -1.43135,0.28627 -1.39372,2.09368 0.0785,3.77045 1.26426,1.43991 1.79482,1.58856 5.0484,1.41465 6.64926,-0.3555 12.84674,-3.14675 14.67263,-6.60836 0.63399,-1.20197 0.63953,-1.2535 0.62495,-5.81623 -0.0234,-7.36319 -0.93784,-11.38451 -2.97906,-13.1021 -1.84329,-1.55103 -5.72084,-2.98713 -9.27232,-3.43417 -4.00786,-0.50446 -8.60991,0.18775 -9.67667,1.45553 -0.76173,0.90527 -1.15371,2.33038 -0.8562,3.11288 0.26269,0.69095 0.54516,0.89492 1.51371,1.09302 0.9131,0.18675 1.0599,0.62329 0.27577,0.82008 -0.58866,0.14776 -2.09678,-0.14623 -2.61457,-0.50964 -0.1388,-0.0974 -0.4924,-0.67941 -0.78579,-1.29328 -1.01425,-2.12222 -3.97918,-4.18413 -7.22458,-5.02419 -2.34382,-0.60669 -5.96935,-0.50631 -8.49361,0.23516 -3.38836,0.99528 -5.553,2.43614 -5.553,3.69622 0,0.40133 0.19761,0.31649 1.35744,-0.58273 1.52116,-1.17935 2.66633,-1.81183 3.28056,-1.81183 0.2296,0 -0.10494,0.32416 -0.75553,0.73208 -1.45964,0.9152 -2.35245,1.74737 -3.01372,2.80909 -0.48091,0.77212 -0.52427,1.21306 -0.66166,6.72821 -0.14703,5.90258 -0.28833,7.32405 -1.17991,11.86949 -0.36643,1.86814 -0.41971,2.60137 -0.23155,3.18706 0.13441,0.41837 0.34429,1.58762 0.46642,2.59831 0.23578,1.9513 0.66027,2.87054 1.43989,3.118 0.30513,0.0968 0.47844,0.35671 0.47844,0.71739 0,0.31105 0.21746,1.11727 0.48325,1.79157 0.26579,0.67431 0.42961,1.36583 0.36403,1.53673 -0.0656,0.17086 -0.52184,0.50027 -1.01393,0.73198 -1.2543,0.59059 -1.56623,1.61673 -1.26591,4.16444 0.12443,1.05568 0.23488,3.7181 0.24542,5.91643 0.0106,2.19833 0.082,4.26991 0.15866,4.60352 0.0767,0.3336 0.4723,1.03147 0.87908,1.55084 l 0.7396,0.94431 0.15766,7.20036 c 0.0867,3.96021 0.32553,8.74079 0.5307,10.6235 0.53541,4.91297 0.4851,5.59077 -0.34108,4.59531 z m -1.64571,-40.72911 c 0,-0.12218 -0.10623,-0.22215 -0.23607,-0.22215 -0.12985,0 -0.23608,0.16563 -0.23608,0.36805 0,0.20243 0.10623,0.30239 0.23608,0.22215 0.12984,-0.0802 0.23607,-0.24588 0.23607,-0.36805 z m 0.23608,-1.18038 c 0,-0.12218 -0.10624,-0.22216 -0.23608,-0.22216 -0.12984,0 -0.23607,0.16563 -0.23607,0.36805 0,0.20243 0.10623,0.30238 0.23607,0.22215 0.12984,-0.0802 0.23608,-0.24588 0.23608,-0.36804 z m 0,-1.1468 c 0,-0.27652 -0.50238,-0.45457 -0.88529,-0.31375 -0.51099,0.18792 -0.32049,0.53015 0.29509,0.53015 0.32461,0 0.5902,-0.0974 0.5902,-0.2164 z m -2.95304,-9.53946 c 0.18038,-0.43168 0.44878,-1.47869 0.59644,-2.32663 0.49089,-2.81889 -0.42328,-4.44294 -2.5009,-4.44294 -1.25589,0 -1.55553,0.39567 -0.74617,0.98525 0.59225,0.43142 2.0625,3.51961 2.0625,4.33218 0,0.21595 -0.21544,0.44898 -0.47877,0.51785 -0.36186,0.0946 -0.44128,0.24776 -0.32522,0.62712 0.39016,1.27529 0.93719,1.39599 1.39212,0.30717 z m -0.35566,-9.17544 c 0.002,-0.21955 -0.10262,-0.46485 -0.23247,-0.5451 -0.1418,-0.0876 -0.23463,0.21317 -0.23246,0.75332 0.002,0.66751 0.0626,0.80798 0.23246,0.54511 0.12587,-0.19476 0.23047,-0.53375 0.23247,-0.75333 z m 2.12831,-0.0869 c 0,-0.1871 -0.10623,-0.3402 -0.23608,-0.3402 -0.12984,0 -0.23607,0.21876 -0.23607,0.48609 0,0.26736 0.10623,0.42044 0.23607,0.34019 0.12985,-0.0802 0.23608,-0.299 0.23608,-0.48608 z m 0,-1.53451 c 0,-0.26736 -0.10623,-0.42043 -0.23608,-0.34019 -0.12984,0.0802 -0.23607,0.29899 -0.23607,0.48608 0,0.18712 0.10623,0.34019 0.23607,0.34019 0.12985,0 0.23608,-0.21872 0.23608,-0.48608 z m -2.1247,-0.70824 c 0,-0.42132 -0.0983,-0.66139 -0.23608,-0.57626 -0.12984,0.0802 -0.23607,0.40523 -0.23607,0.72216 0,0.31696 0.10623,0.57627 0.23607,0.57627 0.12985,0 0.23608,-0.32497 0.23608,-0.72217 z m 5.66587,42.27635 c 0,-0.26178 1.132,-0.60372 1.33306,-0.40268 0.0718,0.0719 0.0607,0.24399 -0.025,0.38248 -0.19538,0.3161 -1.30814,0.33329 -1.30814,0.0203 z m 1.43905,-4.61983 c 0.0124,-1.94115 0.0925,-6.53932 0.17788,-10.2182 0.14501,-6.24578 0.1856,-6.71097 0.61274,-7.02331 0.65926,-0.48206 1.01131,-0.41568 1.46461,0.27614 0.6077,0.92746 0.76859,2.54483 0.53812,5.40937 -0.11492,1.42827 -0.31688,4.82779 -0.44881,7.55449 -0.13194,2.7267 -0.3465,5.27634 -0.47681,5.66586 -0.17,0.50818 -0.20297,-0.29207 -0.11671,-2.83293 0.40675,-11.98116 0.42934,-15.76458 0.0935,-15.65365 -0.69986,0.2311 -0.87848,1.19505 -0.88306,4.76537 -0.007,5.22797 -0.49268,15.09489 -0.75646,15.35867 -0.14601,0.14601 -0.21946,-1.03709 -0.20496,-3.30181 z m 9.93364,-29.37987 c -0.0847,-0.18489 -0.74171,-9.21635 -0.74565,-10.24971 -0.007,-1.79748 0.22202,-0.65975 0.59222,2.94348 0.29913,2.91153 0.40286,7.85091 0.15343,7.30623 z m 13.00761,-3.069 c 0,-0.5843 0.0461,-0.82333 0.10231,-0.53119 0.0563,0.29216 0.0563,0.77021 0,1.06236 -0.0563,0.29215 -0.10231,0.0531 -0.10231,-0.53117 z m -0.93493,-8.26272 c -0.45422,-1.08663 -0.5794,-1.65255 -0.36556,-1.65255 0.35667,0 0.8119,1.07607 0.70917,1.67634 l -0.0969,0.56639 -0.24669,-0.59018 z m -1.19561,-5.27771 c -0.43336,-0.95114 -0.36313,-1.6119 0.0837,-0.78766 0.19764,0.36456 0.32592,0.83638 0.28508,1.04848 -0.0534,0.27767 -0.15671,0.20465 -0.3688,-0.26082 z"
         style="fill:#000000" />
      <path
         inkscape:connector-curvature="0"
         id="path3062"
         d="m 305.29488,703.26039 c -1.46419,-0.36661 -2.23346,-0.43422 -3.42313,-0.30096 -2.08065,0.23311 -3.24025,0.15268 -4.17177,-0.28936 -4.58789,-2.1771 -4.56709,-12.87648 0.0429,-22.0544 1.20681,-2.40261 3.53105,-5.94243 4.33914,-6.60853 1.73995,-1.43421 3.75241,-1.0428 5.56862,1.08311 0.88032,1.03043 1.31322,1.33009 2.36179,1.63493 0.8764,0.25477 1.71255,0.74834 2.63449,1.5551 0.74283,0.65004 1.45762,1.1462 1.58844,1.1026 1.136,-0.37867 3.05237,-7.01522 3.67571,-12.72938 0.76273,-6.99178 -0.45099,-14.83591 -3.11478,-20.13057 -1.84711,-3.6714 -5.24999,-7.64842 -8.32099,-9.72489 -5.76629,-3.89892 -12.89672,-5.55944 -20.6568,-4.81053 -13.17984,1.27199 -20.80055,6.06882 -24.5609,15.45983 -2.82314,7.05049 -3.25367,17.38569 -1.13651,27.28251 0.56611,2.64624 1.59925,5.90195 1.87289,5.90195 0.10607,0 0.64366,-0.86653 1.19465,-1.9256 0.76317,-1.46691 1.2528,-2.09953 2.05549,-2.65587 0.57955,-0.40166 2.06667,-1.44737 3.30473,-2.32381 2.03277,-1.43904 2.36207,-1.59352 3.39635,-1.59352 1.03975,0 1.25519,0.10274 2.33695,1.11459 2.01297,1.88291 4.34297,7.3508 6.26514,14.70261 0.68781,2.63071 0.85434,3.74337 0.95401,6.3741 0.17294,4.56461 -0.51713,6.88769 -2.55548,8.60284 -0.69243,0.58266 -0.89721,0.63699 -1.85154,0.49119 -2.51551,-0.38432 -4.7677,-0.57059 -7.04337,-0.5825 -1.95158,-0.0102 -2.61246,-0.10623 -3.36125,-0.48824 -1.66848,-0.85118 -3.59205,-3.72811 -5.44345,-8.14133 -3.33948,-7.96035 -6.66119,-19.3713 -7.4199,-25.48936 -0.6714,-5.41394 -0.32508,-12.35543 0.84543,-16.94515 2.93081,-11.49213 11.86687,-21.3798 22.42456,-24.81253 4.02606,-1.30905 6.39016,-1.66307 11.08298,-1.65975 4.68797,0.003 7.08282,0.39875 11.36661,1.87676 9.48965,3.27413 17.2024,11.36322 20.75513,21.76783 1.412,4.13523 1.73295,6.31207 1.73087,11.73917 -0.004,10.91552 -2.02968,19.15627 -8.58773,34.9395 -2.41701,5.81701 -3.20473,7.22084 -4.35923,7.76868 -0.99356,0.47147 -1.44599,0.45584 -3.79002,-0.13102 z m 3.72793,-0.89781 c 0.43636,-0.38313 0.98768,-1.15333 1.22513,-1.71156 0.23747,-0.55823 1.14512,-2.50226 2.01704,-4.32005 0.87469,-1.82364 1.87704,-4.36329 2.23618,-5.66588 0.358,-1.29842 0.89396,-2.91131 1.19103,-3.58415 0.69728,-1.57929 3.4901,-10.25531 4.08982,-12.7052 1.11432,-4.55206 1.33018,-6.60551 1.32769,-12.63016 -0.002,-4.6217 -0.0876,-6.20488 -0.42623,-7.87886 -2.42412,-11.9817 -10.66276,-21.8433 -21.60765,-25.8642 -6.5983,-2.42407 -15.70076,-2.46522 -22.28347,-0.10076 -7.57147,2.71962 -14.24694,8.98072 -18.15717,17.03008 -2.95229,6.07744 -3.91929,11.33851 -3.67458,19.99208 0.17686,6.25405 0.84642,9.64349 4.21819,21.35348 2.23266,7.75391 3.83559,11.28006 6.29398,13.84563 1.6748,1.7478 2.32714,1.93647 7.69964,2.22707 5.30246,0.28678 5.41657,0.26107 6.26994,-1.41163 0.80413,-1.57627 1.1752,-3.7106 1.17892,-6.78108 0.003,-2.51897 -0.0982,-3.2769 -0.80427,-6.01998 -0.89193,-3.46517 -1.88711,-6.2099 -3.51103,-9.68357 -1.98354,-4.24289 -3.22452,-5.41596 -5.17415,-4.89096 -1.42489,0.38366 -4.31981,2.24431 -5.85603,3.76383 -1.39673,1.38151 -2.59294,3.45885 -2.59294,4.50292 0,0.88714 -0.53995,1.29748 -1.044,0.79344 -0.81332,-0.81332 -1.47037,-3.14884 -2.83229,-10.0674 -1.89767,-9.64028 -1.71665,-15.34156 0.72891,-22.95829 2.37235,-7.3887 6.4362,-12.39872 12.53004,-15.44738 3.81992,-1.91104 7.70069,-2.87745 13.39885,-3.33664 12.32198,-0.99294 21.75039,2.62762 27.37734,10.51306 2.43578,3.41344 4.54583,8.6237 5.59944,13.82645 0.4792,2.36634 0.54515,3.36385 0.53734,8.12721 -0.007,4.70895 -0.0778,5.73809 -0.52763,7.75216 -0.59685,2.67215 -1.38433,4.96207 -2.39484,6.96387 -1.22352,2.42377 -1.69679,2.62468 -3.28901,1.39627 -0.54696,-0.42198 -1.91955,-1.13907 -3.05019,-1.59352 -1.85005,-0.74363 -2.11115,-0.9271 -2.60968,-1.83392 -0.68061,-1.23804 -1.6807,-1.80291 -2.90197,-1.63908 -1.3248,0.17769 -2.24888,0.96544 -3.63284,3.09688 -3.72321,5.73419 -5.47135,11.64768 -5.2652,17.81074 0.11497,3.43738 0.50308,4.62526 1.9167,5.86642 0.99195,0.87094 1.39523,0.95585 5.23812,1.10295 1.5661,0.06 3.30801,0.26524 3.89528,0.45905 1.52889,0.50455 1.78244,0.47607 2.66559,-0.29932 z m -5.96706,-3.85076 c -0.002,-0.099 0.54074,-2.01119 1.20605,-4.24942 0.6653,-2.2382 1.31661,-4.47166 1.44733,-4.96324 0.13073,-0.49157 0.28196,-0.84949 0.33609,-0.79536 0.23026,0.23025 -2.24003,9.05522 -2.75269,9.83383 -0.12823,0.19476 -0.23478,0.27313 -0.23678,0.17419 z m -31.35158,-2.82427 c -1.6489,-4.44321 -3.7861,-12.20233 -4.14701,-15.05575 l -0.13438,-1.06235 0.24579,0.94431 c 1.0409,3.99913 2.75328,10.06488 3.73064,13.21499 0.64365,2.07453 1.13869,3.80347 1.10009,3.84207 -0.0386,0.0386 -0.39642,-0.80885 -0.79513,-1.88327 z m 5.14335,0.76145 c -0.21278,-0.13752 -0.2419,-0.2303 -0.0729,-0.23247 0.15463,-0.002 0.34682,0.10262 0.42707,0.23247 0.18113,0.29309 0.0994,0.29309 -0.35412,0 z m -0.0442,-3.2303 c 0.17042,-0.0682 0.37404,-0.0598 0.45248,0.0187 0.0784,0.0784 -0.061,0.13426 -0.30985,0.12402 -0.27501,-0.0114 -0.33095,-0.0673 -0.14263,-0.14265 z m 31.00889,-10.58025 c -8.3e-4,-0.38952 0.14057,-1.13316 0.31501,-1.65254 l 0.31716,-0.94431 -0.13718,1.06235 c -0.0755,0.58429 -0.2172,1.32793 -0.31501,1.65254 -0.17156,0.56933 -0.17791,0.56515 -0.17998,-0.11804 z m -35.04089,-4.63281 c 0.16013,-0.16136 0.35062,-0.23387 0.42331,-0.16119 0.0727,0.0727 -0.0584,0.20468 -0.29117,0.29335 -0.33645,0.12809 -0.36357,0.10099 -0.13214,-0.13216 z m -1.82568,-1.4763 c 0,-0.049 0.18592,-0.23495 0.41315,-0.41315 0.37443,-0.29365 0.38277,-0.28529 0.0891,0.0892 -0.3084,0.39323 -0.50227,0.51828 -0.50227,0.324 z"
         style="fill:#000000" />
      <path
         inkscape:connector-curvature="0"
         id="path3064"
         d="m 345.57708,703.44576 c -0.20687,-0.16231 -0.65751,-0.90105 -1.00143,-1.64164 -0.72973,-1.57141 -1.56111,-2.34451 -3.12985,-2.91052 -0.62188,-0.22439 -1.79219,-0.70608 -2.6007,-1.07047 -1.36681,-0.61601 -1.56859,-0.81264 -2.87451,-2.80146 -1.68051,-2.55926 -2.55311,-4.73755 -3.81724,-9.52901 -0.52079,-1.97394 -1.25632,-4.54511 -1.6345,-5.7137 -1.92571,-5.95036 -3.06782,-14.38598 -2.73283,-20.18464 1.05305,-18.22792 10.58388,-30.28339 26.71427,-33.79066 3.07914,-0.66948 9.35381,-0.73712 12.3363,-0.13295 6.46848,1.31033 11.75188,4.25943 16.46705,9.19159 5.64453,5.90425 9.03635,13.09433 10.16277,21.54329 0.48939,3.67093 0.56746,13.37773 0.12912,16.05497 -0.81334,4.96761 -2.38357,12.29665 -3.70288,17.28349 -1.16682,4.41033 -2.67949,6.41628 -6.05306,8.02689 -1.61707,0.77202 -2.2535,1.23651 -3.17872,2.31979 -2.96605,3.47282 -2.63181,3.23434 -4.49333,3.20601 -4.69404,-0.0714 -7.48652,-1.56038 -8.46788,-4.51494 -0.56309,-1.69529 -0.43437,-2.64072 1.41397,-10.386 2.71145,-11.36211 5.00297,-19.21585 6.44043,-22.07327 1.29146,-2.56715 2.6126,-3.53615 4.45814,-3.26981 1.23204,0.17781 4.51968,1.80115 5.70836,2.8186 2.06545,1.76794 2.48337,3.05296 2.10249,6.46447 -0.20939,1.87528 -0.18888,2.19212 0.1779,2.75193 0.53264,0.81291 0.64181,0.61638 1.26243,-2.27305 1.07047,-4.98364 1.22762,-10.49025 0.41873,-14.67308 -0.49352,-2.55199 -1.63081,-5.82597 -2.98214,-8.58479 -4.70088,-9.59721 -12.40423,-15.75772 -21.71473,-17.36569 -3.88024,-0.67017 -9.6204,-0.25051 -13.10231,0.95788 -9.0358,3.13582 -16.84055,12.59311 -19.38903,23.49436 -0.94135,4.02671 -0.23478,16.84998 1.00716,18.27855 0.48958,0.56314 0.55702,0.5794 0.92053,0.22184 0.42649,-0.41948 0.43104,-0.49689 0.21352,-3.62749 -0.12896,-1.85607 -0.0833,-2.27393 0.36102,-3.30509 0.87555,-2.03182 2.21676,-3.1477 4.61075,-3.83607 0.64921,-0.1867 1.6747,-0.48017 2.27885,-0.6522 2.35887,-0.67161 4.39377,0.67448 5.93808,3.92803 1.7618,3.71176 6.45781,18.62942 7.57082,24.04997 1.15163,5.60867 1.17713,5.84646 0.74749,6.97146 -0.74949,1.96259 -3.35506,3.76134 -6.68038,4.61181 -2.06272,0.52753 -3.35,0.5811 -3.88466,0.1616 z m 32.30249,-1.19288 c 0.39324,-0.20337 1.01369,-0.82819 1.37879,-1.38852 1.37768,-2.11443 2.301,-3.0432 3.75,-3.77219 3.76244,-1.89284 4.42253,-2.82904 6.04396,-8.57193 4.40233,-15.59234 5.22417,-30.0582 2.22005,-39.07726 -0.85927,-2.57969 -3.14103,-7.17808 -4.5311,-9.13137 -1.31984,-1.8546 -8.75948,-8.92228 -10.62234,-10.09124 -1.55637,-0.97663 -4.62035,-2.18941 -7.30435,-2.89119 -3.34946,-0.87578 -8.53356,-1.02368 -12.44755,-0.35516 -7.26686,1.2412 -13.9468,4.63442 -18.88485,9.59294 -1.29843,1.30382 -2.90155,3.16732 -3.5625,4.14114 -3.87618,5.7111 -6.07763,16.0179 -5.32168,24.9151 0.43518,5.12183 1.7487,11.476 2.98291,14.42988 0.18472,0.44208 1.13658,3.46042 2.11525,6.70741 1.8022,5.97924 2.37088,7.4433 3.28149,8.44811 0.27749,0.30622 1.68817,1.11674 3.13484,1.80118 2.84543,1.34621 4.44863,2.61383 5.43545,4.2977 0.32776,0.55932 0.71864,1.02869 0.86861,1.04304 1.32384,0.12688 4.88572,-0.97651 6.43332,-1.99292 0.62648,-0.41146 1.46198,-1.20851 1.85664,-1.77122 0.62946,-0.89745 0.71629,-1.21639 0.70712,-2.59685 -0.0163,-2.45945 -2.85708,-12.98487 -5.61759,-20.81409 -1.44297,-4.09252 -3.37514,-9.07602 -3.75422,-9.683 -0.60825,-0.97399 -2.40623,-1.52422 -3.78217,-1.15742 -1.07894,0.28762 -2.48585,1.4745 -2.68409,2.26434 l -0.14514,0.57829 -0.48686,-0.78167 -0.48686,-0.78168 -0.23773,0.64922 c -0.13076,0.35706 -0.36012,0.64921 -0.5097,0.64921 -0.14957,0 -0.45886,0.20654 -0.68731,0.45898 -0.22844,0.25244 -0.63975,0.49147 -0.91401,0.53118 -0.82351,0.11924 -0.98667,1.2692 -0.64383,4.53787 0.16697,1.59184 0.23431,3.11248 0.14967,3.37918 -0.20074,0.6325 -0.84058,0.78388 -1.73089,0.40953 -1.35878,-0.57131 -2.0864,-4.06611 -2.44365,-11.73711 -0.36832,-7.90866 0.16485,-10.94996 2.86595,-16.34781 3.3157,-6.62604 8.73996,-12.10144 14.96864,-15.10972 3.89975,-1.8835 5.07518,-2.12454 10.28162,-2.10856 3.85833,0.0118 4.67676,0.0859 7.02111,0.63481 7.89678,1.84908 13.97273,6.2418 18.93843,13.69185 3.80079,5.70234 5.20887,10.74512 5.1911,18.59078 -0.0237,10.4464 -0.68699,13.03976 -3.17543,12.41519 -0.69717,-0.17498 -0.72418,-0.49295 -0.32086,-3.77486 0.37055,-3.01518 0.21011,-3.64836 -1.32203,-5.21768 -1.48064,-1.51657 -2.12484,-1.65553 -2.58636,-0.55794 l -0.31114,0.74001 -0.15993,-1.06649 c -0.15403,-1.02723 -0.21065,-1.0893 -1.53658,-1.68433 -1.65854,-0.74431 -2.20088,-0.76699 -3.22383,-0.13477 -1.68857,1.0436 -2.45202,2.92183 -5.08135,12.50123 -3.07626,11.2077 -4.08845,15.69784 -4.37165,19.39287 -0.13945,1.81973 -0.0992,2.15937 0.37135,3.13136 1.18713,2.45222 6.32459,3.99185 8.89128,2.66458 z m -2.38927,-3.94182 c 0.0507,-1.49876 0.27949,-3.2255 0.57869,-4.36744 0.49671,-1.89567 1.80961,-5.00919 2.02251,-4.79629 0.0626,0.0626 -0.29599,1.48606 -0.79689,3.1633 -0.79402,2.65887 -1.40486,5.32627 -1.77959,7.77101 -0.0597,0.38954 -0.0709,-0.40722 -0.0247,-1.77058 z m -28.16626,1.28117 c -0.20941,-2.29602 -1.58403,-7.73737 -2.97759,-11.78663 -0.0894,-0.25968 0.12541,0.059 0.47728,0.70824 1.58217,2.9191 2.79217,7.61051 2.63048,10.19883 -0.047,0.75296 -0.10563,1.14874 -0.13017,0.87956 z m 26.55347,-1.67462 c -0.22562,-0.22561 -0.19408,-0.55085 0.0534,-0.55085 0.11596,0 0.27196,0.15935 0.3467,0.35411 0.13808,0.35985 -0.11339,0.48349 -0.40013,0.19674 z m -23.79394,-1.70847 c 0.17892,-0.11333 0.25235,-0.32417 0.16313,-0.46853 -0.099,-0.16012 0.0274,-0.26248 0.32384,-0.26248 0.61284,0 0.6288,0.37919 0.0295,0.69994 -0.55236,0.29563 -0.97416,0.32101 -0.51644,0.0311 z m 23.5088,-0.27456 c -0.25408,-0.4111 0.0353,-0.49817 0.35908,-0.10802 0.18622,0.22436 0.20411,0.3598 0.0476,0.3598 -0.13806,0 -0.32107,-0.11329 -0.40665,-0.25178 z m -24.66042,-1.28272 c 0,-0.36575 0.81492,-0.47952 1.51384,-0.21134 0.59784,0.22942 0.18095,0.56545 -0.70152,0.56545 -0.56467,0 -0.81232,-0.10793 -0.81232,-0.35411 z m -0.23607,-1.77058 c 0,-0.12984 0.21872,-0.23607 0.48608,-0.23607 0.26733,0 0.42043,0.10623 0.34019,0.23607 -0.0802,0.12984 -0.29899,0.23607 -0.48611,0.23607 -0.18709,0 -0.34016,-0.10623 -0.34016,-0.23607 z m 25.45213,0.0748 c 0.17043,-0.0681 0.37404,-0.0598 0.45248,0.0187 0.0784,0.0784 -0.061,0.13426 -0.30984,0.12401 -0.27503,-0.0113 -0.33096,-0.0673 -0.14264,-0.14264 z m -24.05521,-1.18065 c -0.76923,-1.17213 -1.28294,-1.33424 -1.08454,-0.34223 0.16169,0.80851 0.007,0.90779 -0.6562,0.42245 -0.92261,-0.67461 0.32416,-2.28502 1.30145,-1.68102 0.31219,0.19293 1.25954,2.2207 1.10822,2.37202 -0.0541,0.054 -0.35509,-0.293 -0.66893,-0.77122 z m 22.45477,0.71886 c -0.004,-0.1479 0.20109,-0.51973 0.45645,-0.82628 0.25536,-0.30652 0.46784,-0.43629 0.47216,-0.28836 0.004,0.1479 -0.2011,0.51973 -0.45646,0.82627 -0.25534,0.30653 -0.46781,0.43629 -0.47215,0.28837 z m -25.02547,-3.38118 c -0.29908,-0.18912 -0.29244,-0.24089 0.0477,-0.37142 0.46652,-0.17901 0.95611,0.0644 0.76185,0.37866 -0.16972,0.27465 -0.36663,0.27289 -0.80956,-0.007 z m 0.29297,-0.88089 c 0.2297,-0.0598 0.54841,-0.0559 0.70823,0.009 0.15984,0.0647 -0.028,0.11362 -0.41763,0.10881 -0.38952,-0.005 -0.5203,-0.0577 -0.2906,-0.11756 z m -1.47998,-1.62668 c 0,-0.20557 0.12616,-0.33173 0.28035,-0.28034 0.43773,0.14592 0.51034,0.65412 0.0934,0.65412 -0.20558,0 -0.37379,-0.1682 -0.37379,-0.37378 z m -0.019,-2.71737 c 0.37822,-0.15118 0.65337,-0.14613 0.81446,0.0149 0.16698,0.16699 -0.0122,0.23858 -0.5712,0.22832 -0.76528,-0.0141 -0.77998,-0.0288 -0.24326,-0.24328 z m 31.17194,-1.52359 c -0.22078,-0.26599 -0.20186,-0.36725 0.0894,-0.47903 0.39824,-0.15284 0.86419,0.0418 0.86419,0.36092 0,0.37179 -0.67384,0.45525 -0.95364,0.11811 z m -36.80371,-3.92104 c -0.9006,-1.5609 -1.76088,-4.21889 -2.14849,-6.63818 -0.34131,-2.13031 -0.18086,-2.66359 0.25065,-0.83303 0.16234,0.68869 0.86611,2.88865 1.56395,4.88884 0.69781,2.00019 1.22218,3.68329 1.16524,3.74023 -0.057,0.057 -0.43105,-0.4641 -0.83135,-1.15786 z m 39.98113,-0.14007 c 0.0751,-0.35707 0.35093,-1.91832 0.61286,-3.46947 0.46398,-2.7475 1.36991,-5.32442 1.87185,-5.32442 0.32039,0 0.34484,-0.17144 -0.35923,2.51679 -0.85147,3.25096 -1.9846,6.92631 -2.13543,6.92631 -0.0696,0 -0.0652,-0.29215 0.01,-0.64921 z m -1.90902,-1.58977 c 0,-0.26522 0.0765,-0.28686 0.31479,-0.0891 0.17311,0.14367 0.31476,0.30133 0.31476,0.35036 0,0.049 -0.14165,0.0891 -0.31476,0.0891 -0.17314,0 -0.31479,-0.15765 -0.31479,-0.35036 z m -2.20339,-1.52431 c 0,-0.25204 0.10624,-0.52388 0.23608,-0.60414 0.12985,-0.0802 0.23608,0.064 0.23608,0.32052 0,0.25652 0.13279,0.52001 0.2951,0.5855 0.1623,0.0655 0.0561,0.12745 -0.23608,0.1377 -0.37482,0.0131 -0.53118,-0.11624 -0.53118,-0.43958 z m -33.86708,-1.88625 c -0.0747,-0.12088 -0.0278,-0.28648 0.10411,-0.36805 0.28173,-0.17411 0.71208,0.0469 0.71208,0.36568 0,0.28726 -0.63897,0.28913 -0.81619,0.002 z m -0.60027,-1.90494 c 0,-1.07451 0.2515,-1.20752 0.69971,-0.37003 0.3547,0.66276 0.18705,1.31434 -0.33819,1.31434 -0.26438,0 -0.36152,-0.25369 -0.36152,-0.94431 z m 35.72371,0.15911 c -0.94504,-0.34906 -1.23506,-0.63164 -0.64649,-0.62994 0.68861,0.002 2.18808,0.45933 2.34651,0.71566 0.18877,0.30542 -0.77223,0.25697 -1.70002,-0.0857 z m 2.21269,-1.6346 c -0.33649,-0.24921 -0.3595,-0.43497 -0.14802,-1.195 0.2711,-0.9743 0.85807,-1.08433 0.73908,-0.13853 -0.0391,0.31146 -0.077,0.80531 -0.084,1.09745 -0.0149,0.62257 0.003,0.61407 -0.50707,0.23608 z m -0.2959,-3.84041 c -0.4325,-0.33814 -0.41283,-0.35473 0.34984,-0.2951 0.44444,0.0348 0.85167,0.19596 0.90497,0.35827 0.13548,0.41269 -0.69996,0.37062 -1.25481,-0.0631 z"
         style="fill:#000000" />
    </g>
  </g>
  <g
     inkscape:groupmode="layer"
     id="layer1"
     inkscape:label="JPG"
     style="display:none"
     transform="translate(-11.90625,-10.90625)">
    <image
       width="497"
       height="304"
       xlink:href="data:image/png;base64,iVBORw0KGgoAAAANSUhEUgAAAfEAAAEwCAIAAAAo5N87AAAAA3NCSVQICAjb4U/gAAAgAElEQVR4 nO3de1xTZ54/8G9/UxNnm8SVoCgahOIFvECrMFSo4z2VwYrwK8JUsPsT7YruiM4qzlCcWqD+ijAL dKswW3Gr0F2sM1wcvGykir8WrAXtC0oXb0iUGoESUELVc7pDfn+Ee3JIgsjl4fN++YecPM853+c5 4cPJSXh4Tq/XEwAAMOF/DXUBAAAwYJDpAADsQKYDALADmQ4AwA5kOgAAO5DpAADsQKYDALADmQ4A wA5kOgAAO5DpAADseN6SRoWXrjzrOgAAwBIrFi7o41GLMt3sXgAAYBCYvcK2NNOJ6Ns7uqcrZrBN nSgd6hIAYPj6vmGEZdq8aeYzDffTAQDYgUwHAGAHMh0AgB3IdAAAdiDTAQDYgUwHAGAHMh2AiFor cjKyLtZxQ10HwFNCpgMQaVTxySX8NBvxUBcC8JRGfaarM/y9lO7d/i2LKR/4izV1hv+iXcXW/n5D /3oN/hGfps5+ePrD9d4Df+1Yrigker2j6Omre4YGeZ5hZLLi90iZJXI7dDrJh7HfOXUMz/9isHqN OL2HKXL5XWbWUBUDMKBG/XW6afw9VWK4r9LdS+m5PCziYBVHRFx1fuwWXy+lu5efb+i+E2q+x3WT 4f+GK3zjlkTEN58/GO2/SOm+KDzuYpPhKDVHty9bpHT3Unr6bk+51NpHPeZaGhXcvTauOj92yzJD PWuD3Q11miy+R6+7nb38I7MrOlt6hcd9sKtrIFzV3vDjar5i6wqlu5df1BVesG8vQlV5hcV9EL1u udJ9UXQpJzBwvvn8x/vWLVe6eyl9u/Yv0LjvE6crPxIZ9qqX0t0rOPyDonucwDB7EZo9E72sP3dC VVn8fLh3NNxzY0FjR+PSmADfWMNz2NR54cr3Lu/+UrX3S4F7R8M9Q03tDYYlZLop2qI/xFXMis/+ +nJOXtqWZZOJo9bzMbsS7ysTThd8XZgWG2inE0xgoZZ1amnAocKCvE10Mvl4DRGRSL4yMvO0qvxy Qd42ycmEzGuC3yjmWpoouKue4rhdifeXJJwuKP9/mcmbnOUWTUFrcUxkqlaZclpVXvjhRjq+I6G0 hToHEtw1ELFrXEawo8jtUKGq/PKpAwtEffa1pKomzWS/hDxV+Rf7PcVCA6/TiFfGflZQXpi2kc/c kWC4XWaycd8nrulsVHSWKCyzUPX16V3zKhO3Hq7umLqew7Ro0kz26se566MqAzP7nLIyYNbN3Asa IiLSlZ+4JFka4iwWOi9i97jPVeWXVeWXj8XOf8ExINxDarS3O7ln2/dW+uklyWshznjjYdjCvRci vmLrCmXnV3K/1DObeI5vbbxfr+Ncp8z0CZpJpFV9+pVkS2agm5yIHDwDIzyJSG1qb9oS0y1Frhs3 eE4RE7fQzfZwbSNHTmISt1anx+2/UFmr4YmI+rhTaqYlZ1SwuqT9IV3ZkYuSjZkhnnIisnGZ6yyl KvNzoi078pVNxHHDKJxXbfZO312k5jzdyNRALOzbPQb6qErkGhro49QRK6YHLnIN3eDjIiUi5zWb vNNiVNc5dzeT8yl0OjpKzaqctPG40klKRJ4R2zxPxhbUbIp0MTlMS2KsH2fZ+NxpVYJVdTCzT3vv 0BlpR87dDXrLoeVqbpl8ScZMEWlL+j4v97L3p2pXH0px7T1Qe+/QGWlpuXdDtzm0XMotk/tFzhze bzyMbrhOJ2q/xmz/d/4PrmJ7Zdxeb+3hXct/qXx17a6US02kq22k8U6WXOKaaykWSUTE80TElcdH JpVNC0vOy/k6M9hRxPNCfcy2NC64k7a6kcbPsuzivNsoqhv52viA9tfjvwg/p2lt7nV92TUQ6/ta WpUlUyS1kfLNnFDjvk+HrlZHL3T+/CC5nZSv75WPgsPskxVn2dSTzUxV5qfFxvstV03uuRqutSy7 yj7Qz4nMnBdOnb3nY37jgTAXEz+6bLzfctWeO3WNa7qQXeUYsqT3T3EYTnCdbpLIafXujNW7iasr zd63NSZtWaanlEpqdGT0VirfO62kCoGWRu5XVbS6RG5b4iLt8xLdopZGBadN6qjHTko/anREJuox Kr7bKGxFL27MS/e39oeBhX37qqobC6aI09bqpApbMZHaVOO+T0evR7X1OpGdxW+WC8+edUMw92Qz rsqCaZHND/bWfXjiqt31G4qg+ElEfZ4Xriot6rh4W1qowCd/ZPODvXVJn54bf/2O88bFk0y2gWEC 1+mmqFUpR4sqNK0klthKJWKpjUjuETq/7khCzjUdEdd0TZWRVcmT3NmWai9UNnHa6vzDRWpDX5Mt TZJOsqX64somTledf1il7qMesy2NC+58SO62alpd1rHiRo5aNFVns0s07dtNFd/Vy2P9K/Wpsdml Gp6Ib1RXnc8pqhHKMKlCyteer2zidE2NnGV9haqycOB88/U7TRwRpylOTS63D/FzEmrc9+mQe4TO rTuSrKrREactTTtYKl292qJ7LH3PniVD6GTyydZ3VZY8c6TuQQtbT8SkXZ8buFTePliB89Jakbz/ 5OSIhEDhsJa6By3kT8Yd0cwN9u7Hj3kYRLhON7qfvjLxzM4X+K/Stx7aryOSTvOOjA9zEUtc4pN0 CalbV6RrieQzFkfEE0m9d28r2Loj5BcixWt+CjkZwsJmlXFLk+TeMTtVhu5LVyr6+k4x21JqVLDo eMdjDkEHIq9HJS3/5XskUby2eLyURCISKr6TzbL4JF1yanzwETVPIomd2+Kw2EDB8qI2FOzYEfJn slufkRE115K+AlVZOvC6/Jjw1Ps/Eo333rAvJcRBuHHfp8Nm1YH9mpiksBVJOhrvEbD70CbL3v0z M3uWDKFzV6aebH1XZdEzR+QWssT2nGpeiIesY7Cmz4uuPDW3XktJy72SiIhIEZObEWRvYm/254rm bXCXEQxrz+n1erONCi9dWbFwAf7OEQO4ysS1u0XJeZGmbpsOmeFZFXTHXXnfN0aUkrfbjaFzNBL/ zpEhjftog3sv7Gu5UVx8o66FI9JVnfy4hBYqLbq9MCqrAgGtxcfKpKsDWQp0VuHeC/v4G6fiE8o0 PBGNn+cXnrzH6MNqQ2F4VgWmaUs+vWoTtMd5qOsA83DvBQBGKdx7AQCAYQ2ZDgDADmT6cNJ9ITAL G4+I144jqFSAEQ6ZDgDAjlH/uRd1hn9wkUeA4ttzZdd5j8OF+z3pbn7C/tRTt7U0xvGVsLj4EDcp EfH3VKl/SD5X1kQiiZ1HYHSKX8m64CK3AMX1c2XXW8l+fnDsgXBPw5uyuvIjMUlHvqrX0XiPgIjY nUumiA0HKvEIGF92qkJNijfiE/cutiEi4qrz4xLTL97W8GMcp0k0pGgvjDNZhkl8zdFd4YevaXkS 2bis/8P+HQslxmM0UaqlYyfiqvMTEg3b7SdLNFrFocIkn/sZ/mFVUYal59UZ/mFVUYaNvYb5Sv3e 8ONqnrauUBKNee1Q7oEFZKZgAOgvXKdTz8VdBdYjNb2YbZNGqjSs+Lqecva0r/hq1fKtrcVxuxK1 SxLyCsovH0/Z5NqR25YsV9vJkjV7TZZq2ditXq3X7GK8li8yDADWQab3XNzVsE7snkA3OZHUedVm b/GVIjXXfUFUyZSZPkGBrjIyLKy6xEUuIqlz0CZvuqK6znUs37pT6SQlsdwzYpunrqCgfbWT9oVY RfYL3Wy1tY1cx5Kze0Lc5CIiidNMRXumC5UhQNxa/WlUuO+i1b+KK9PerzVx49pkqRaOvaNIT7mI xIZ1cc3MZ+9h9qNgAOiXUX/vpZeO9Ui7FgUReXBkWBC1Kv7wruVxP0knu72xJ3rH5J4dpTZSvpYj k8u39s4ssUgiolqehJecFSrDJK48PjLp+uLo5HgPJ+3xdeFVZhaG7SzVwoP2b7Xe7sN8yoIBwGLI 9J4E1yMVXsyWiIg4ba3WsOKrVcu3Ci05a9VSt5av2dur1N7FCBy0f6v1DlzBAGA53HvpSWg9UpOL 2fLNNYYVX9VFqQnljoYVX61avlXu4T+t7sjh4nsccZqq/GNdC/Zas9StBSuvmizVwrH3b7XeHhX2 XIxXqGBNTkTo+6W4tw7wFHCd3ovAeqSmF7OtOxkbkXqnmZfYLQ3sWPHVuuVbJ605EHktKulXv3yP bF5cs9hO3ncZJlm08qrJUi0bez9X6+1RYc/FeAUK5ps1d5p5nggrvwD0F9Z76S91t0/yDXMDWirW xQVmYL0XGKWwLi7ASIF7L2Ae1sUFGCmQ6f3lGJ7/xVDXYKGnLtV29f4zqweoGAB4lnDvBQCAHch0 AAB2INMBANiBTAcAYAcyHQCAHch0AAB2INMBANiBTAcAYAcyHQCAHch0AAB2INMBANiBTAcAYAcy HUao1oqcjKyLdfizSADdIdNhZNKo4pNL+Gk2WPUXoDtkOhFRy6X3fRdtz/rmYriX0r33v13Flvwt FHWG/yLLWvbRnbFrTpNzYu1EmW7PXzuWKwqJXu8oevoyR5J+P82e8vk5IHsYUI0X3/ddtP2Eeqjr GH6wfjqRrjQxpsRxb2boyzahlxcTdfyxt8IkH1wEDlMil99lZg11ETCEbBfvTg4ID4vJ8c4KnDLU xQwruE6nmpz0s/KwGKWNYAt1hr9XWNwH0euWK90XRZdyfM3R7csWKd29lJ6+21MutRJXtTf8uJqv 2LpC6e7lF3WFJzJqY4yrzo/Z4rtI6e7l5x+l0nRtv5sfu2WZl9Ldy88/MrvC+MpIneHvFR73wS7/ RUr3ReFxF5vat+vKj0SGveqldPcKDv+g6J7xVX/3S62uVwb8PVViuK/S3UvpuTws4mAVZ7L43pPQ ayzmau6Obz7/8b51y5XuXkrf7o2N6zcxsQLDFJqTHpMWttdQv5fSNyKjtP24lgzWkrNpcgaM55aI q86P3eLrpXT38vMN3XdCzQucF1MtDbN3MLrnMC0YQtcfALdgLJacCCun6N7RcM+NBY0dNZTGBPjG GmbD1Lxx5XuXm32tLHLZvH3p/cxUk0MYxZDpdy/k1s3aoDT3o75JM9kvIU9V/sV+T7FIvjIy87Sq /HJB3jbJyYTMa+QalxHsKHI7VKgqv3zqwAIRkVGb3gnbWhy3K1G7JCGvoPzy8ZRNrtLO7TGRqVpl ymlVeeGHG+n4joTSFhP11KmlwYcKC/I20cnk4zVERE1no6KzRGGZhaqvT++aV5m49XC1RfdytEV/ iKuYFZ/99eWcvLQtyyYTJ1h890noORaLau4qXiNeGftZQXlh2kY+c0dCOSdUv9h4YvsYpvGc9NKk kSoNx11POXvaj2vJYC04myZnwMTctp6P2ZV4X5lwuuDrwrTYQDudYCIJtaxTSwN6DtOCIXTdozI7 FgtPhHVTNGVlwKybuRcMVy668hOXJEtDnMVC8yZ2j/tcVX5ZVX75WOz8FxwDwj1M/nl0qXvoYlFJ dlWfT7ZRZ9RnuvZ2sdZm2Vzhi3QDkWtooI9TxxNL3Fr9aVS476LVv4or096vNXlVaqaNruzIRcnG PSFuchGRxGmmon3f2rIjX9lE7Al0kxNJnVdt9hZfKVIbZ7PIdeMGzylikf1CN1ttbSNHpC3Lqpy0 cafSSUpiuWfENk9dQUGNJaHO8Rzf2ni/XsdJpsz0CQp0lQkV33MSulhYc7fiQzf4uMhFJHVes8mb rqiuW15/H82M58TEpC0xHDeo87iWDdbM2RSaAeO51ZZ8+pVky55AN7lILHXwDIzYOFfgLQGhlqaG adX5MjsWS59IVk2RvXfojLoT5+4SUcvV3DL5kqCZIrPPnHvZ+1O1qxN2Cv39W5HjSme6UaJh7I2o pzPqM11X10jjHeXWdOHK4yOTyqaFJeflfJ0Z7Cji+X600VY30vhZxsfVVTfytfEB7a86fxF+TtPa 3MczViySiIjniUhXq6MXur6B5XZSvt6iN7TslXF7vbWHdy3/pfLVtbtSLjVZNMCnqLkHqY2Ub+Ys r9+CZl1zYslxB+RsCs2A8dzqahtpvJMlzzdzLbuGadX5Mj+Wfj2RzNdg4/2Wqyb3XA3XWpZdZR/o 50RmnjmcOnvPx/zGA2Euwm9rieV20lbLnuejBt4jtd79qopWl8htS1ykRELPJrNtpHZS+lGjI+p1 GSVV2Ipe3JiX7m/VjxkikiqkVFKjIx/DDrX1OpGdqResvFHaipxW785YvZu4utLsfVtj0palOZsf 4IDUTMRpa3VSha3Y4votHab542oNx1UPyNkUmgGjuc307FF/F6Pz0mukfbDkCWnNWPozwxbUIJsf 7K378MRVu+s3FEHxkwzHEnzmcFVpUcfF29JCzXy0aZR98MkCo/46XTrJlpo1Wmu71BdXNnG66vzD KnX7RoWUrz1f2cTpmho5gTbdyT38p9UdOVx8jyNOU5V/rEjdsX39K/WpsdmlGp6Ib1RXnc8psugW itwjdG7dkWRVjY44bWnawVLp6tVOvS5w5M62VHuhsonTVucf7jiiWpVytKhC00piia1UIpbaiCTm ijc6tHU1883X7zRxRJymODW53D7Ez6mP+ntNrCXDFD5ujeG46qLUhHJHw3HNnilL2gjNgPHcyj1C 59cdSci5piPimq6pMrIqedPnxWTL/pVn5VgsOhH9qEHqHrSw9URM2vW5gUvlfc4btVYk7z85OSIh cFKPPWhyIkLf7/H+vLZWJ+nPD3WGjfrrdPmLPvKmC5VNoY7mbql3dfGO2anauiPkFyLF0pUKecfG qA0FO3aE/Jns1mdkRM011aaHSWsORF6LSvrVL98jmxfXLLbraGOzLD5Jl5waH3xEzZNIYue2OCw2 0JKybFYd2K+JSQpbkaSj8R4Buw9tcu6ddVLv3dsKDFW95qeQE09EJH2B/yp966H9OiLpNO/I+DAX e5G54nsf2sqa6/JjwlPv/0g03nvDvpQQh77q7z2xFgxT+LgnYyNS7zTzErulgR3HNXk2ezHfRmAG jOdWLHGJT9IlpG5dka4lks9YHBEvcF7IZpVxy36WZ91YLDoRkn7UIHILWWJ7TjUvxEPW97zpylNz 67WUtNwriYiIFDG5GUH2RHyz5k4zzxO1n3L++rlqmulnj88cd/OcXq8326jw0pUVCxd8e2eE3baa OtGin981R8PXnfLL+wyfcmWa4XcOTieZv5UBI4WuNGrtforPPLBQYr6xKd83jLBMmzdNakjjPtqM +nsvRE6BW5ZqMxNVRp9oBoDhi792LL1kclhkfwOdVch0IqlnTLzH9bh9WWozn5UAgGGi8WLizuwX IuPx8rq3UX8/nYiIZAvfOfPFUBcBz5RjeD5OMUNsF+N71jRcpwMAsAOZDgDADmQ6AAA7kOkAAOxA pgMAsAOZDgDADmQ6AAA7kOkAAOxApgMAsAOZDgDADmQ6AAA7kOkAAOxApgMAsAPrMoLVHj2oKzr/ +VBXMSro9frlK5VjZROHuhAYMZDpYLX/OnP617/+9VBXMVrk5ub6Brw51FXAiIFMB6uNGTPGkj95 CAPib3/721CXACMJMh36A5kOMDwh08FqbW1tbW1tQ13FaIGpBqsg06E/cJ0OMDwh08Fqer0emT5o MNVgFXw+Haym1+vbTFBnrLCbGXH5Ufdtjy7vmGfn9+f7ptq3PSp/d56d37lHJh8cwQZ2XMh0sAoy HaymN00RsN3n4an00gddmx6Xpp9++KvIZRMFuvSxtxFtgMc1tKcbRhZkOlhNKHpkPpG/os/Tv+wM 9Qefp38uDvhHb5nhqy9TQr2c5HK5/UtrfvuXO4/b00qvf1AY6vTSb0sft3c6FeTk9d4Nw/9LO7p4 haZ8+UCvf1zxnpfrmk1BL9nLXTcVPuh+9Md3/hId5OVkLzccIfpUnYkSjXao1z+uSAv1crKXy+1d lb/9y52OlnWFXdVGn6rT6x9XvPeS/ZrCx4Y+771kH2T4v3FLvV5PXH3OP69xlcvlTsrfdlRissI+ RoRMh35ApoPV9KbvvbS1SV/eHDLufHphneHLusL04olvvT1f1NbW1qb+j7B16fR23s2Gu8WJc4p/ 4x9b8UivJ9Lr26Tz31725Px/Vjxq71Q2MSTYua2tre4vmzq6nN8t/iRs01/q2vR6rqGsflX2zbtl qUul3Y6t/vew33w+PbGktqGh4WbuW08++efYr3vf/TC1Q/V/7PpPReKV2oa7xXGK0+/EfvHIUO3m Dem0Pe9mw93iuAk5mzf/pa6tvdr2GyId/xdqeevbCe8UN9w9v/3J0XdSKx4JVyg4Itx7gf7Ae6Rg NeGLR/GCDRsUy//0ef3akIl09/SfKqe/nTpdr9cTNRR/ckXx9udvzZHpSbZ0V9zS7O2f/PfacYa9 yeZvWPYk8mjl4wULWj4/Wql4K3W6Xq9v+PxPJRM7uqx95zcfvnr0y4Y4IvGcYN/pYnGvdw8Vwdlf BsscxukfP7h794lsgril4WGvMk3tsN5bLG44f/STHL3vsrV/qlxrKKih+JMr07d/GTxHpieZ74Hc 0w3jpPqGzrFT192VeoGW4vlvv71Apifnpd6KD2/W6/Vz9MIVmh5R12wP3KkD9iHToT8Eg2b62s1z /vXfTt8NfutJ3r/dWvCOv8LQ9MHNFpo4fUJ7P9EExTju1gOSGXalHzt/gy/9w9HKB1NvHa2c/na6 Qq/X04ObLdyt91+1e79z53NqH+j1RGMniEwc/0nZ0cj3j5XU0sTpc+dMfMjRxN4/ekzucMJv0lMb 9ia9/+v3t3AK782x6XG+E+nBzRYaN1XW3l02fY6M6Em9nroyveP/gi3HTpAaWoqJa+8lUKHgiAD6 AZkOVuvzJu/UVZvnv//R6W/nfH/84dKEJV1pJ6Ozdx/q9TIioicNtQ/FU2V60pOe9Hq9Xjw7bNW4 /3P0fO6tW3M2LzFEv2y6TDw/5etTwYYFrB7W1nITJjT8UU96Mk7AhuP/uCVv+r9/cW3pxLFET65E /qKkgXqVaWqHigc3rsj8U07909gntSV/3PJm5N5VS9K9ZdNldKGz2oYL/3r84drfzCE96Z880evF pH/S8MRQuamWm6d3jov0nWOsF6zQ9Ii6zXb/ThOMTrifDlYTvJ/e1tbW1ma7eNuShmNJSWf0/tte EnVufSVsfu1He7O/bW57dOfzpL0XZP5BLmP01PFbqaLZoUHis3/Yf2v+psW2XV1uJcXn3njU1tb8 ZXzgosCkbx/ru7r08PjxQ45ozBhRW9ujG6ffj/rsB457/LhXZSZ22Hz3eOT/3vJv3za3ieS2U8Ri 2QRpW1ub7StB8299FJ9741Hbozun46M+uvBkTJt0toK+yyuua3t058y/nv2Bozahlt2L7Py/UIVC I8L9dOgXZDpYzeRnM7rIXt70Wst/FYnXhc4Wd22dGnQwK4j76PXZU5wX/+67hf9y4nfzRZ13MPR6 vd55TdjUH2hh+Cuybl0ywn74o9J5ypTZ4Rem78t4t1eXbqau+WDfnJLQ2VOmuC6O+GzCtv+7RNZw paF3I+MdymZvTf79hM/emD1livPrh2W/PbRztliv108NO3g4qOWPSucpzsr9LWEZB4Mm6Cco9/1+ 4Xc7X57y8vqz84NmywxlmGrZs8j2/wtXaHZKh/RswwjznCXPmMJLV1YsXPDtHd0gFDSApk6UDnUJ bMr+JO31118f6ipGi7/+9a8h/xAx1FWw6fuGEZZp86ZJDWncRxvcTwerGe69DHUVowWu08EqyHSw Gm4IDCZMNVgFmQ79gaABGJ6Q6WC1n376CZk+aH766aehLgFGEmQ6WG3ZipX5+fk/+9nPhroQ9v3t b39boXxtqKuAkQSZDlZTOM95y3nOUFcBACbg8+kAAOxApgMAsAOZDgDADmQ6AAA7kOkAAOxApgMA sAOZDgDADmQ6AAA7kOkAAOxApgMAsAOZDgDADmQ6AAA7kOkAAOxApgMAsAOZPsDuXcw+kl3aONRl AMDohEwfUFx5emxmqcTZdqgLAYDRCZlORETqDP/l0aVc14Z7FzN2hAZ4eindvfz8IxLzb7RaspvG i5llcyPjVtsMQD2LdhXr+vXoMPQ0BVval792cLvvIqW7l/LVtdEnbvD9OhjAiIe/c0RERI7h+Z93 fdVycV9YTPXSPfvPrHS15e8W53y4J3yXLjM91NHMbmyVSWeUz7JOECaesTo2c5/bZKo4vHtrVKZH XrjTUJcEMPhwnU5EHReD7dfpd/+cXGq/M3HvaldbMZHUweetfcmL648cLG2hnpeN3Xtxd/Njtywz XNdHZlcYX1eqM/y9wvZ+EL1uudLdS+kbkVHa3oavObp92SKlu5fS03d7yqVeLwgEHuWbz3+8r31X nYdTZ/h7hcUZDrEoupTre899lM3fUyWG+yrdvZSey8MiDlZxRMRV58du8fVSunv5+YbuO6HmhafC qKWh4IPR/ouU7ovC4y42CQ+t56E/PBMdflzNV2xdoXT38ou6wgvXLHJSKj0dbcRiG7eVHra66sZu r7oARg9kOhHRvcoqLYlEhi+0Fee1k/xfmdTtcYlbgDtVFmkEY6K1OCYyVatMOa0qL/xwIx3fkVDa YqJZk0aqjP2soLwwbT3l7Eko54iIRPKVkZmnVeWXC/K2SU4mZF7rcRShR+s04pWGXW3kM3e074qI mjST/RLyVOVf7PcU971n4bK1RX+Iq5gVn/315Zy8tC3LJhNHredjdiXeVyacLvi6MC020E4neC9K qGWdWhpwqLAgbxOdTD5eIzS0Xoee6vi7jGBHkduhQlX55VMHFogsmGq+5lxJ42Rve7FQhQAsw70X ulcQHZbQ+saB/Z6GFNDV6+gFe2nPRlI7MV8reFNXW3bkK5uI44FuciJyXrXZO313kZrzdOsVKyLX jRuWuEiJyDlok/eRGNV1zt1NTOLW6vS4/RcqazU8EVGvo5h+VOQausHHsKs1m7zTDLsybA/0cZL2 2dds2RzP8a2N9+t1nOuUmT5BM4m0qk+/kmzJNLR08AyM8CQitcmpKN3dK4oAAAzGSURBVDHdUuS6 cYPnFDFxC91sD9c2cuRkcuDGh1aXWDPVTcX/Er0nd3xkpnKK0MkCYNqoz3RdaWpylceBzB0LJe1b pAoplWh0RN1jXVfPicYLXvnpqhv52vgAZXznFpGHmZf+UhspX8sREVceH5l0fXF0cryHk/b4uvCq Hu/u9f1or131YravUNn2yri9VfGHdy2P+0k62e2NPdE7Jtc20ngned9DMuzTTEuxSCKiWl6oPBOH tqxmA3XugeM/bTn+YaijyIJaARg06jNdW3GdV0TOlXRtkbusmlyX/1VdUGDn7ZfWilPlOsdIx/ZQ 53sHqFRhK3pxY166vyWpR0REnLZWK1XYionUVRWtLpHblrhIjS+kie73+WjHrnSGXVnbV7BskdPq 3RmrdxNXV5q9b2tM2rJMTymV1OjIp9fLF1NTIdDSwvKMDp02qUevvqdaNN5+xouzJiPQYfQa9ffT 5S72VHviXFWjtu7apYL8ylYihzV7lLrkd+IKqhs5It3d4qP7dp4SrdnkISMiubMt1V6obOK01fmH i9TtO/FY/0p9amx2qYYn4hvVVedzimqMr5z55po7TRwRpy5KTSh3DPFzIiLpJFuqL65s4nTV+YdV 6l5dhB7lm68bdqUpTk0utzfsysK+XWMXKFutSjlaVKFpJbHEVioRS21Eco/Q+XVHEnKu6Yi4pmuq jKxKXmgqTLQ0yWR5xoeWKKR87fnKJk7X1MiZm2r7wLSsdzxxJx1GsVF/nS71iYsv2xEbuTyBSPLi +gNLiEi2IDIzrSD14L61cfU6IqIXXtubGrVAQkQk9d69rWDrjpBfiBSv+SnkZAgsm2XxSbrk1Pjg I2qeRBI7t8VhsYHGB6s7GRuReqeZl9gtDdyXEuJARCT3jtmpMuxw6UpF76tPwUfr8mPCU+//SDTe e0PHrizt20mgbOkL/FfpWw/t1xFJp3lHxoe5iCUu8Um6hNStK9K1RPIZiyPiBadilXFLk0yWZ3xo e4raULBjR8ifyW59RkbU3D6nWp3hH1YVdTrJ/KsEAEY9p9frzTYqvHRlxcIF394ZQb/lQkQ0deJA fGers/3DSiJOf7jqKXeGuAEYZr5vGGGZNm+a1JDGfbQZ9fdezJrsOktUe/ZSU4um+h4+8gwAwxsy 3Ryxe9Qej5q9IYsCEku0Q10MAECfRv39dAvYKt/JV77ztHtxDM//YiCqAQAQhut0AAB2INMBANiB TAcAYAcyHQCAHch0AAB2INMBANiBTAcAYAcyHQCAHch0AAB2INMBANiBTAcAYAcyHQCAHch0AAB2 INMBANiBTAcAYAcyHQCAHch0AAB2INMBANiBTAcAYAcyHQCAHch0AAB2INMBANiBTAcAYAcyHQCA Hch0AAB2INMBANiBTAcAYAcyHQCAHch0AAB2INMBANiBTAcAYAcyHQCAHc8PdQHP0PifD3UFADCM fT/UBTwLuE4HAGAHMh0AgB3IdAAAdiDTAQDYgUwHAGAHMh0AgB3IdAAAdiDTAQDYgUwHAGAHMh0A gB3IdAAAdiDTAQDYgUwHAGAHMh0AgB3IdAAAdiDTAQDYgUwHAGAHMh0AgB3IdAAAdiDTAQDYgUwH AGAHMh0AgB3IdAAAdiDTAQDYgUwHAGAHMh0AgB3I9JGutSgywGFV6tWWoS4EmMdV/X6p37rP6oa6 DujL80NdwOiiVqu///57nU5HRFKpVKFQTJs27an2eE+VXGwTkRUxX0ZE9KQi0Se0+t3z6WtsTTd/ UpHoE1r77pcfrpE91WEH1sBPS08jcVqG4Zw8LM68aBt2bN2kASwDBhyu0wdJW1vblStX7t+/P3ny 5Jdeeumll16aNGmSRqO5evVqW1ubqR6t/xXh57Be1dBjI381LsBhTU5tx9cPtaI1B97f6SLq1flJ ReICty0nGwd+IAPrGU2LkBExLcN2Tlo4j3dTAqdbOAwYIsj0QXL16tWffvppxowZ48aNGzNmzJgx Y/7+7/9+xowZHMd98803pnpIXlnvLvs252L3bzau+sTZH18O9VZ0bBjntjp82aSxRp3HukWcObNf KXAJNnw8o2kRMiKmZdjOicI38LUpva8eYLhBpg+G27dv//jjjw4ODryRadOm6XS627dvG/ca5xaw WHQ763zX7csn13NUuhdDl00ioltZ0Ut9/BzclA5uft7rE0/U8N37PqlI8/WNVhm+ybm7J2O2LHBT OrgFrI0r+6GzUUt1VmT4XDelg0dwWEJpz6u8wYBpMdZ9Tm7cuJGZmZmZmXnjxo3RPCdgFWT6YLh1 65ZMJuMEyGSy6upqE91k7qHLXvjmREnHy2f+m6yylnmBiw2XVFJFUNS+M/mHz2dFv05F/xyRecv0 wfmrcbv/6YLN1kNp5z/bv9NjfMf21qK9u6Kvu+zPOnwmJYBOvLM56+4AD9ucZzstn0WHjsBp6ZyT mzdvHjt27Nq1a9euXTt69OjNmzdH7ZyAVZDpg+Hhw4c///nPhR79u7/7uwcPHph6RPRykMeE66dU 94iIiKvKKuZfDvWYSERE0/0jtvp7znFymO7ms3OHp0xTXm3yoy8tpclnW5Vx0eGvOk93cV3s6zzB sL2x7NAFeiMuco2bw5xXQ/bvUHyTceo77unGaaVnOy0uPhtH4LR0zklZWZler+/cXlZWRqN1TsAq yPRhbaxboFJae+LsXSJ6Upp7kXMN97Fpf6yx6kTCvnVBYd4+fvPCS1qITH6XPdFUVPOTlsyS9N7e WP492S10ar89OmHWizJt1Q8j5Bu1z2kpz4qL9l8VMNdNOXM0TQvmBAyQ6YNBIpE8evRI6NFHjx5J pVLTj4mdQ1eN/+8TJbeo9ZsTpeQZ8Irhg2Vc+e+DIt+rGL8mYtfHGWlnUryFP4PHE40Ri59uAM/G wE9LS/lvg3a/V/HCmohdH2el5SWMvGnpnBMPD4/u2w1fjs45Aasg0wfDlClTtFqt0KM//PDD1KlT BR4UOQctmao5paoozyimV9a7jyMioic1RRe1it8diAxd5j7HxWGq7QtC34ljbZ0nUP1VDW+03X0q 1Rd1vF32w/XbLXLXCYP7/Tzw06Ip+kqreDflnXB/n4VuzrOnjLxp6ZwTBweHN998c+bMmTNnznzz zTcdHBxotM4JWAWZPhhmzZolEolMvrt169atsWPHzpgxQ6jvWBfl6/b1h+LSL4o9Q93aXxePlTpP oLqTJ0q/q7n73Zc578UV/SDU39YjdN6Pf47LKLpWffV8TnTMuR86tocv5f+6N/Vkxd3vvsyOTqmd Heo3Z3C/UQd+WmydJ1DdybOlt0bstHSfEwcHh8DAwMDAQEOgj9o5Aasg0weDWCx2c3N7/vnnb9y4 0dzcbPhcR3Nz882bN0UikZubm7ivV7zOQavsWq7Xi306Xk0T0RTlRwlLuBPv+Ppv2pBaIVvlLvyC elJQ6rtvkGrDuojgAyUyH7eOlpLX4pLenXUtOnST79ZcLujdY+EOAzVeCw38tNgqP0pYwh15Z9mI nRbMCTyl57q/ty6k8NKVFQsXfHtHNwgFDaB50wTuPA4FvV7f0tJy+/bt+vr6zl/4njx5sqOjo0wm e+6554a6wKGBaTGGORk0IzHTDGncRxus9zJInnvuuXHjxs2ePfvFF1/8n//5HyJ6/vnnx44d2+dl F/swLcYwJ/A0kOmDSiwW4zvTGKbFGOYE+gf30wEA2IFMBwBgBzIdAIAdyHQAAHYg0wEA2IFMBwBg BzIdAIAdyHQAAHYg0wEA2IFMBwBgBzIdAIAdyHQAAHYg0wEA2IFMBwBgBzIdAIAdyHQAAHYg0wEA 2IFMBwBgBzIdAIAdyHQAAHYg0wEA2IFMBwBgBzIdAIAdyHQAAHYg0wEA2PH8UBfwDH17RzfUJQAA DCpcpwMAsAOZDgDADmQ6AAA7kOkAAOxApgMAsAOZDgDADmQ6AAA7kOkAAOxApgMAsMOK3yOdN036 7OoAAICnh+t0AAB2INMBANiBTAcAYAcyHQCAHch0AAB2INMBANiBTAcAYAcyHQCAHch0AAB2INMB ANiBTAcAYAcyHQCAHch0AAB2INMBANiBTAcAYAcyHQCAHch0AAB2INMBANiBTAcAYAcyHQCAHch0 AAB2INMBANiBTAcAYAcyHQCAHch0AAB2INMBANiBTAcAYAcyHQCAHch0AAB2INMBANiBTAcAYAcy HQCAHch0AAB2INMBANiBTAcAYAcyHQCAHch0AAB2INMBANiBTAcAYAcyHQCAHch0AAB2PG9hu8JL V55pHQAA8PSe0+v1Q10DAAAMDNx7AQBgBzIdAIAdyHQAAHYg0wEA2IFMBwBgBzIdAIAdyHQAAHYg 0wEA2IFMBwBgx/8HrIwDhn7Gsj8AAAAASUVORK5CYII= "
       id="image3047"
       x="0"
       y="0"
       style="fill:#666666;fill-opacity:1" />
  </g>
</svg>
